t0_0015e260740a3963c724be95f966c6063077979c.apk_flows.txt
t0_001717460c5ba78085eee9b7ed58bec94759e4c8.apk_flows.txt
t0_001fa1574a73e9a8481e26df2aa6104eb2406b57.apk_flows.txt
t0_002a775c92338612b6e3fbf00ab157a353e48514.apk_flows.txt
t0_005ce595935bf1aae4d53ab4bbd92ce7c81e5b2a.apk_flows.txt
t0_00c154b42fd483196d303618582420b89cedbf46.apk_flows.txt
t0_00c419169ce1099f508de8b7b97634b49379a531.apk_flows.txt
t0_01555033f037f7decc7fbfe968ae8522ea25fb45.apk_flows.txt
t0_02805652a3b7e87df02fb63372946a17ebd09794.apk_flows.txt
t0_02a11b75507fd1b6f612aebbbfc6d203f68f2cc3.apk_flows.txt
t0_039f76817208b204f866e80160c2c6c4a3487458.apk_flows.txt
t0_041a4396669b79e9e3c2d01dbb9b9e72668524b1.apk_flows.txt
t0_0439a1f9e665641637ade3dc6db962e2b67d0a44.apk_flows.txt
t0_043c690231c44de57fe05fff7cda5378b56ff0ad.apk_flows.txt
t0_0465b4b687651a24b7e230e7b00deca6576fc1d1.apk_flows.txt
t0_05499696e53ebe21748ad8f577ee5cd6f8c32b0f.apk_flows.txt
t0_057694b62bfd6a488f3db80454bbd48bf84f68e7.apk_flows.txt
t0_057f30568cf23fcdb633732c20ceb7464e15d397.apk_flows.txt
t0_05b0a342dfadf2ebdb6b2bf15540d4fe4ef4d4ce.apk_flows.txt
t0_063c8927e682fd8b2a5519056d95363bddf6df35.apk_flows.txt
t0_067665e8ef6bddfede683ea698bbd4d279465b9f.apk_flows.txt
t0_06f97f3c65c28eb422272a213d130103f6bd4693.apk_flows.txt
t0_0796d209d28ae48d776e0b990031c0a6d0d2cd70.apk_flows.txt
t0_07a3a66dccc51ec5406d09d5009d6e3b9194b36f.apk_flows.txt
t0_07d149da403b5f7e2901f0dbc7561c2f1746061b.apk_flows.txt
t0_08033b1e70ba72dfc4784b0a4e1c35aed5e62ee4.apk_flows.txt
t0_081cb21a6bf6005a24186353cbae9574c055ce26.apk_flows.txt
t0_087aee9d1d99e13279272a256b2702338ea2d58b.apk_flows.txt
t0_08ae867d595465b9d94e20dbda0babeef38b3489.apk_flows.txt
t0_093b259d2f93c76cfdc43774e1fd3f9bb4d3d44d.apk_flows.txt
t0_095b4416b29b187eb1fbebb2f9d8ecfa688c4ad7.apk_flows.txt
t0_096427cfca06b10a3dd0d47284fc64fdd9e884eb.apk_flows.txt
t0_0a17388b64b6b1e91763a88a0f08194ef4223957.apk_flows.txt
t0_0b43ce26e3d71472de357ab4b1e3aa0b94d9f445.apk_flows.txt
t0_0c6e6c5a49424ed101b08376fa6114c1603b37b0.apk_flows.txt
t0_0cb343e080e4a7d2083dbf3d20961ef8f39f0f46.apk_flows.txt
t0_0d04c5b0078a809165ff9fa560907dc5d16b64a5.apk_flows.txt
t0_0d33dc4fe85e88cb70e9e1870497b4fc26c272c1.apk_flows.txt
t0_0db53aefbd60325df198e9ebb190f45c61ac8923.apk_flows.txt
t0_0e551f4fcc5da86aa2b3b68e14405c2a2c5598f9.apk_flows.txt
t0_0e5838d74ded166c6ceb26b09ad575b6d546d669.apk_flows.txt
t0_0eb4b7737df1b8b52213599e405d71c9be8a68ac.apk_flows.txt
t0_0ed06bade12587e2ef29fa1912fd7ed8c4aa1ffe.apk_flows.txt
t0_0fba36955687064f19668ff4a1b88917c80cfaa4.apk_flows.txt
t0_101a5f4db60794e99cefca9d4253ba5c779ad2b4.apk_flows.txt
t0_11b0f2a63d0deafd4602be297ae37ff921aeada9.apk_flows.txt
t0_127df235a9181bb4cdb4dbf1ce19deba90a8df18.apk_flows.txt
t0_1317d996682f4ae4cce60d90c43fe3e674f60c22.apk_flows.txt
t0_132f70936801d48da0677dedb09ef526ff1403ee.apk_flows.txt
t0_13469906ab76205fbf3c04e016d20f31deb74c3b.apk_flows.txt
t0_1353bd14e91a53fa1ee54cd51c1db6918eb9f851.apk_flows.txt
t0_13aa69204267cc67aefce0fd66f1d88f7f674b83.apk_flows.txt
t0_13d7fe4fe6760f6c9d467cc4daf2649ad7d8c7c2.apk_flows.txt
t0_147798e4306d06a6eea438ec994779677daf4c1c.apk_flows.txt
t0_15799032055df9f93440b61547b37e01a7234a0c.apk_flows.txt
t0_17cb8f0fa3e1e63303e8230b8e62423fd3abee13.apk_flows.txt
t0_193cd2a8d549b1ff607569ea6c3f5936ce44c47f.apk_flows.txt
t0_1a05de16dca00616c1959a1e94ca9529330be2d8.apk_flows.txt
t0_1a613334f30005925d95bbfd845caa065a15682b.apk_flows.txt
t0_1b2bf4f0edd14fc896976a711b47dff716bd1cf1.apk_flows.txt
t0_1b87a490c092a7632f7363c8c4003a2db67bac4e.apk_flows.txt
t0_1d53d08fcec4ac4e205bcf8dbe9af6a53eca6ca8.apk_flows.txt
t0_1dadd4ac2b36e366a2dc0e1869246520542a1257.apk_flows.txt
t0_1dffd31460a705499254461b590a7d5628d60c1c.apk_flows.txt
t0_1ecb39d2c99271e737061195854b442acce43802.apk_flows.txt
t0_1f56be54a06d20b4f394f4023d9fd6a4c3c443d1.apk_flows.txt
t0_1fad7afd7ccae3c7f70b11a342e52d4bae2a2f7a.apk_flows.txt
t0_1fcb0e758828a49e440e2adc5690e0ea1b8b2db3.apk_flows.txt
t0_1fce3240ea70b77e0d11c009788ae7cea5c87f77.apk_flows.txt
t0_202252e3767456e95b27d0476ae29bcc11253c1e.apk_flows.txt
t0_20595020c2033e4f7221b08e4ed6934f59a0d778.apk_flows.txt
t0_205f802ae72827841f5a51de9b6e6203f692fb14.apk_flows.txt
t0_212cd727fbc46186b0f9ee6aa507ac9f89b0c089.apk_flows.txt
t0_22445b06ed3aa807a0db23e6bc7f41d16a1f9465.apk_flows.txt
t0_22a286c16748889399735aef429ea923d0398c51.apk_flows.txt
t0_22cb9404fa1d2e8d86ffd8bab1eb78d28ee2a9a4.apk_flows.txt
t0_2315239af9c0041d876ace7b600f278ffe4f3b64.apk_flows.txt
t0_23478d0b6085ec2ef99d72cdc31b8db2c9b74fbb.apk_flows.txt
t0_2442bca2f23e997f94bc2a26ec05da012fb31785.apk_flows.txt
t0_24d3a18e042c35eea3f95da16c7697ac15fe223b.apk_flows.txt
t0_255a1b74428b5615d65f39775ec7234e27bd9e74.apk_flows.txt
t0_25651493931163c49220cf22f70cf9cd3d125bba.apk_flows.txt
t0_25b55588a296a58191fd2daa6de2aab3951eb99d.apk_flows.txt
t0_25bf619bbea49002e1b127b64d3baa86c85371d8.apk_flows.txt
t0_26700b0638695958e8fd3887a54baba5c9c75214.apk_flows.txt
t0_26dd1126da55fd0754a0b96d877ac0f36f248e99.apk_flows.txt
t0_26e0ff6dc765de4eeaa4bb02370ffbbb6d29ea29.apk_flows.txt
t0_26e253420b194e4ab55ad3550a31155091ad00b2.apk_flows.txt
t0_26f9ab6a3ba047ad7294c682d99f3b437d274cfa.apk_flows.txt
t0_273ddfcecc25837e4ae5b0534d1006a9c893d94f.apk_flows.txt
t0_27ef09f21167bdba71839ce370b59d0caa4b64ee.apk_flows.txt
t0_28176bc34e54e087e90bbbaba0c846ec9182db17.apk_flows.txt
t0_2867b64163407a4c8bad0a2775923bb4331b8f6a.apk_flows.txt
t0_2a3de2b348c02fdb96a11af33ff9fcb932a47b7d.apk_flows.txt
t0_2a41e329f8ddd4d2a0e69b1259361f07323bb3bf.apk_flows.txt
t0_2ac72e9b0c4cbf4e3aaaf0f3614e53dbce703bfa.apk_flows.txt
t0_2acdf6234a9e71577f00d297751740ba7cffc556.apk_flows.txt
t0_2c1e7ac97f69753eda5ab088950b64ac12de0b44.apk_flows.txt
t0_2c1ea998acb4e71242ca757b03b7dd3de1c4cbc5.apk_flows.txt
t0_2c47ec0a2eb6e88e910f1c16889f8cdedce09507.apk_flows.txt
t0_2c8d75b4de0a7415eeb24ae0b6cbe04392d60e3b.apk_flows.txt
t0_2d486501dcf635a5ca58bb82d3dd3539329a276d.apk_flows.txt
t0_2d59ea978fba9daac1135091a9b24544708f2ec3.apk_flows.txt
t0_2d773a9f8d506d72adc2d4545f01880925c75171.apk_flows.txt
t0_2dad20f4b3e43d1e9abe2ee1a4eefcfdcfe7a1ba.apk_flows.txt
t0_2e058566681bd767edd930fce75114d4612db994.apk_flows.txt
t0_2e998614b17adbafeb55b5fb9820f63aec5ce8b4.apk_flows.txt
t0_2ed1d46cd4f3aaaa20f079dd56aa52ecb5edc974.apk_flows.txt
t0_2f77b540c49b1b9be16ecf03c14254fd951d4e03.apk_flows.txt
t0_300c2b19d6882dd6d9af9e59dad1079c49f3c8a1.apk_flows.txt
t0_303e151c8ea1e1436ec07c5db13968393546587f.apk_flows.txt
t0_30441d6f70304fdefb84d983a99a99a1007d25de.apk_flows.txt
t0_30c7121c1757cc7b2c31b5a9f9a9100f758c0c73.apk_flows.txt
t0_317396eff7f54067185c4f249041e16f27578010.apk_flows.txt
t0_318ca6d756ed927214658b4b842656673226410a.apk_flows.txt
t0_31c9a6cb37cd4acec71128a065dcb0d67448389c.apk_flows.txt
t0_33761c63814fd9fa530bb2e46f86a58b2615211f.apk_flows.txt
t0_33d0ee8a52bc049eec7dcb02600ea04df9446f06.apk_flows.txt
t0_34f0173db9b416022c56d69a3361595e181055fc.apk_flows.txt
t0_357ea5ec9c90ae09e3c31c47d854b0eed2a33714.apk_flows.txt
t0_35a0ee37db4ae0e9b0359499e11d96c7b03d9e28.apk_flows.txt
t0_35b1825c9b4948e1b924b74afd1d9d5930f8ff4f.apk_flows.txt
t0_35b223e521abc1cb6b8043f95c2a133c11ed8be4.apk_flows.txt
t0_35c1ee05537c83c75de7f980cd4d0b25b06c2ebf.apk_flows.txt
t0_35e916d266be4ba8dc1d0e15915d68f63c978222.apk_flows.txt
t0_3777babf3e139c882162499ec987ab832c0014ce.apk_flows.txt
t0_37fcc6c7d4163e6fb0e560f7ad02f0094c598413.apk_flows.txt
t0_38331a6364fba626d99d41de5cf87bcaabe3ab5c.apk_flows.txt
t0_393289d9ab54e0cc53d067fbe02baca199428c70.apk_flows.txt
t0_396888b036203ee436f860b664aec91f8b40afdc.apk_flows.txt
t0_397bce64ada488100e423cd12ef0a142ff786bc1.apk_flows.txt
t0_39e3b5cedd3144e2def4b54b1c4cbbcf1d40c624.apk_flows.txt
t0_3a1e6fd2d3b454802faf8510b12187010c31c4d9.apk_flows.txt
t0_3ad00ec15c2843460a5188332c8f33e4e1b9b0ec.apk_flows.txt
t0_3ad389a7665c8c374634dd14ef2e16fbf5c2446c.apk_flows.txt
t0_3af9b2d73ec08af9226d0f24ee6a2d41d9023bb1.apk_flows.txt
t0_3bced02d401e03216fdfc1433040a65f9564526a.apk_flows.txt
t0_3c5b73d6c31495e614f50706f5f326883dbe3b3b.apk_flows.txt
t0_3c9e8ba93894a56fcfa7d3ca61c353b20d1ce94e.apk_flows.txt
t0_3d5f7ce39bfb947a8d96c01bff35c744f837815c.apk_flows.txt
t0_3d7413a4266cfaef11c4f886b0b1e0d7bddda8f2.apk_flows.txt
t0_3d79d12d1abcddf9b53ca04469488a84a91aabdc.apk_flows.txt
t0_3f729d0bb5a6524463d11265bac1b676cec6fade.apk_flows.txt
t0_400acf4279ada32b148a7371b14672e8bbdac39e.apk_flows.txt
t0_40181a7facb6ccde8b685296baa526c4ccfd656d.apk_flows.txt
t0_403dda836236787285afe02e7faad83beceb0c99.apk_flows.txt
t0_4096c6fef844652fdb8e68ba9455d1b86e4509ce.apk_flows.txt
t0_40a58856afc7e9bc85e1c36bb8cc68870f9c8d7c.apk_flows.txt
t0_419d66623a73371a4cf6e96fc7fbf0f230eee724.apk_flows.txt
t0_429fb02bc9ea18e0d485fa70149f33bbe41bf60d.apk_flows.txt
t0_42cc9f2d312436c866c5d59b4bd0217e75ac2b21.apk_flows.txt
t0_43c115cb70bccfbf4e3ff6d9529e1fde6b2f81f4.apk_flows.txt
t0_43c8c771b3ef116754add2db4201a4320f8b9480.apk_flows.txt
t0_44166a49f587baba1240bee8136a8799fcfb7fad.apk_flows.txt
t0_4510995da9150d89c71a6a6e1e2a647def1f4b4b.apk_flows.txt
t0_452d6acc582168089f8462bfc169b5c3e555ea2e.apk_flows.txt
t0_459c88871fd1a048198490ec2ece645681c9bfca.apk_flows.txt
t0_45fd0de43d16ebd4e8a25262fb2125a8d50a4963.apk_flows.txt
t0_4626899e1c247b9b6ad6b9ebb2ef67db41591563.apk_flows.txt
t0_462c8041f02931f7c168d41ca18e46fc95cc4e6a.apk_flows.txt
t0_467a3aeab0b67612fe7d1e8cb9c873eaaacf8a39.apk_flows.txt
t0_46ec6903a6c621c7b03d36224a79873b135ef2de.apk_flows.txt
t0_47aeedf4330cf2b4e5fff3a5ae546cc4387ed2f8.apk_flows.txt
t0_4863b54d84dd40c1e371e95a99ef4f306fba501a.apk_flows.txt
t0_48ee219b43bb37c63e46e7f419c869dc7c666f74.apk_flows.txt
t0_493bd7fd1ac8d588f0a999b80bbc4458a293325e.apk_flows.txt
t0_49f327b5bbddee1206a7ab9be6bef541fc2ba874.apk_flows.txt
t0_4a449207f15ba3f7b982d5ffbe49e17e4498dbc1.apk_flows.txt
t0_4ada771c44ccb10670eef0199b23b85c73f9465f.apk_flows.txt
t0_4b105d5b8b87818e4e49a0f6454fa9ff48e4fdeb.apk_flows.txt
t0_4b5cdc89b14f2eafa191e448c3e928c4c45ce8ec.apk_flows.txt
t0_4bf050f089a0d44d6865ff74b75cb7f1706fdcaa.apk_flows.txt
t0_4d3bd1ac7ddcda1499f5b40f017cb8e0841ba741.apk_flows.txt
t0_4d43d7771e480de34dbf748867152406b91a0de8.apk_flows.txt
t0_4d7e5692dcc1cadb8ddb391da06cf367eeae0eb2.apk_flows.txt
t0_4de0d8997949265a4b5647bb9f9d42926bd88191.apk_flows.txt
t0_4e36ac0dfe0a3cee8fa296d7180e1dba4ab4c718.apk_flows.txt
t0_4edab972cc232a2525d6994760f0f71088707164.apk_flows.txt
t0_4ef262b65298c8ce0ed694481a4c15c87be08e4e.apk_flows.txt
t0_4f4ee687c683e889f204b1a0c86878f198380513.apk_flows.txt
t0_4fdcfaf6fa2d5e49ca81adad8bfe595fc30bd86e.apk_flows.txt
t0_508353d18cb9f5544b1ed1cf7ef8a0b6a5552414.apk_flows.txt
t0_525021355c2042b23860e00c2c890200417e2207.apk_flows.txt
t0_526b8f128e6f16e2a1d200b3d97230e17ee75fc1.apk_flows.txt
t0_53253de729ba65f332f90f79a1677cfcbbb71f13.apk_flows.txt
t0_539b47540e124d099aebaede370b68bd0eccec49.apk_flows.txt
t0_53a4ca3552bfa0857dada5776d7bfcf2fb0296ba.apk_flows.txt
t0_542f2e0e6c98abd2f78e915e010030cb8f7d45a2.apk_flows.txt
t0_54dacf873755f45d77b2e64e56bd070718f5aaa2.apk_flows.txt
t0_557a34c7a4ac70efcccb123b66a6af7a5ec1f34f.apk_flows.txt
t0_55d2ac3807448a671924a0ba007311203e280dfd.apk_flows.txt
t0_581cc75307fd40ec1db151c721fded8a160843a2.apk_flows.txt
t0_584f8a2801a8e7590dc466a6ebc58ea01a2d1758.apk_flows.txt
t0_58c9d94a6dc29927fa5794eb7d6cda8b30d176ad.apk_flows.txt
t0_58eb3fc4d52585f2de4d19e01d0dbd742e321a59.apk_flows.txt
t0_5900250af412b7147764706847cf1dbc54cd6e0e.apk_flows.txt
t0_593dd0ec6d6b9802d5d4626978cead4c83051b4a.apk_flows.txt
t0_59e64dcd3c4c6a04afd04f542b13b25ac68d23ec.apk_flows.txt
t0_5a74f1796a4177d2c29be91ce15dea217ec7adc5.apk_flows.txt
t0_5ac5e5031704057a370ae8dfbb4eb5b8b2692add.apk_flows.txt
t0_5b0bb093e0ec375e902ffeab074ee70df47fb896.apk_flows.txt
t0_5b7146ef3177fa491d1720a7df46f3f6d40a2799.apk_flows.txt
t0_5c52f10a83f344c1d68c3c79a4b306f667e62f0a.apk_flows.txt
t0_5c70988fc9751f283b2f2b5733f9e7f2a54afa69.apk_flows.txt
t0_5c72dc537300f2fecd26ff56426d1a092fa8138d.apk_flows.txt
t0_5cea3de233f4527b5eb582e17c6f2eb396f9bcf6.apk_flows.txt
t0_5d4849121562ef989506a61bccf2eb0aa40cb496.apk_flows.txt
t0_5d6e726eae1ec333363a0308f4fee075245690c9.apk_flows.txt
t0_5ed635278e3488c93a17fbbb97909b9bb6ed65bf.apk_flows.txt
t0_5ee6d380fa086364fed4bbde1ec14c156ac92ed5.apk_flows.txt
t0_5f505727ff12e9ef180ddff4d254bf22884d6316.apk_flows.txt
t0_5faed0fd9dd3de3b6292f13fc98f7c1d17ef6e57.apk_flows.txt
t0_6020a609ec937acbe202f3f7f0f72ad2558602b5.apk_flows.txt
t0_608e033ab996034bceb90c22bd42a0120e844ff4.apk_flows.txt
t0_60bacf0dc2068e9ff8769141beb9d2fe6407eaf3.apk_flows.txt
t0_60e1e73e0e3d320d3168766e65caf7e3468ab06c.apk_flows.txt
t0_60e56d2c044832d336fbbb75b22fb37cb69e05b6.apk_flows.txt
t0_6265fdd2acb56457d06d9b07d6d73eb37af5cdeb.apk_flows.txt
t0_630cb29b1385a36b7a811910709c9c0cd856aa98.apk_flows.txt
t0_63215358a684e5dc7ab0483fbb8a9b8bd27e69f6.apk_flows.txt
t0_6323c02d0f19a5de17798beaedae9720db889849.apk_flows.txt
t0_6358acf25c941687697addd40e3a4014a555e9df.apk_flows.txt
t0_63c709d3e8265826256aad6f6646ae5ee873268d.apk_flows.txt
t0_64bc7f0381ce1793f90f278217f29ff7189d1c35.apk_flows.txt
t0_65567a9b079f513916eb9da07131c07fa103985d.apk_flows.txt
t0_656988c0c696696824984728196be6426880609e.apk_flows.txt
t0_66061b26219ed6591e0da91eb297d976f607db0e.apk_flows.txt
t0_661bf32e3bd763a02587d36aa4b24a703e146c15.apk_flows.txt
t0_6778864561499804b6707762238c74d381ebcebb.apk_flows.txt
t0_67bfb5edf9dbb7cbc82964d68e97106723737f60.apk_flows.txt
t0_67c101c7f59a560ea6a46ad49899c869e0541d65.apk_flows.txt
t0_67f8966ed4d60bc728d0c06cdd83fec7c4352f3c.apk_flows.txt
t0_68392ef467a62903d0191570d714a8bad1682bf9.apk_flows.txt
t0_691c56698c1bbaada0de560dfe582a612702c8ae.apk_flows.txt
t0_693e57580bae775d8e79c259175a8002bf0b8fcb.apk_flows.txt
t0_69589f74d0ca9604b775b32e4f96edc9ffc4efd1.apk_flows.txt
t0_69bad4181dfe7634f183df40e3fa5510ce3e13eb.apk_flows.txt
t0_6a5f31a1da2c0956fd49ea27ab45f777c75ad90c.apk_flows.txt
t0_6a74fa3bacf4578799971b240ad6761f779a994d.apk_flows.txt
t0_6abce94205ee4fb45584bf767be98cff478233ce.apk_flows.txt
t0_6cddc0292bf8db5dd5d933d4e443701816d186ae.apk_flows.txt
t0_6d5ed5ca8434a571f21fc0770f4f8ba689b20fed.apk_flows.txt
t0_6e0ff9b28c52ababf13b13adb01f0bea36eb77bd.apk_flows.txt
t0_6e846ba7c5ed056c10ba2e663aca276670d2e82c.apk_flows.txt
t0_6fb2834c5747262bf6c5484d349d379a1764a79c.apk_flows.txt
t0_7069e63d9a63447f9bb8aaedb15e39dfca3aa76c.apk_flows.txt
t0_711ff55e9d5ab5e2614326c0dbb98d6db38e20a6.apk_flows.txt
t0_71a477ec2cc87dc3a3c874c6fe02bcb00d2f315b.apk_flows.txt
t0_71d2f241f2cb8f4208dd3574df3c3ce0dacdd1c0.apk_flows.txt
t0_722523b5a7b579ba8f0c51a10d93f068d88b61a5.apk_flows.txt
t0_72a5e33fcde64437c712ea4f2c5450d46795af68.apk_flows.txt
t0_72adcf43e5f945ca9f72064b81dc0062007f0fbf.apk_flows.txt
t0_72f9fb479e94e263b13e7d40dbbaf1566a3a3d13.apk_flows.txt
t0_730fed46dc7f13691906f46111ee5e05aa1b854e.apk_flows.txt
t0_739ae32d675b3f030a94da081978fa8f34971111.apk_flows.txt
t0_73a5f05c7b2dd3e35554c99f0ce15f3ab799691d.apk_flows.txt
t0_73c1657ddf52cc82b57c2db80554c59927e7970a.apk_flows.txt
t0_74019e8bf30ef7cce7dbf34a2a3df5f8915a0b48.apk_flows.txt
t0_744c0c7091630fc5a999277b95dc0b1cf3b68153.apk_flows.txt
t0_748f889a0184b8e5700e3d210bc358e135c0ae9c.apk_flows.txt
t0_750c7b43cf733c2de2210a8843f402f05bdccc2c.apk_flows.txt
t0_75b6b469588cee4eaed0ee8cb8a9de4c56e40b89.apk_flows.txt
t0_764bdff985b515ca9207fe8f2fbcf41f7874b5d5.apk_flows.txt
t0_7656cd2159882c165b28ad5ba9e523a34357cf6d.apk_flows.txt
t0_76d39105c126d681af4c4da762acf368de2f934b.apk_flows.txt
t0_777e20b423286859c76091281790c66e19d1fe93.apk_flows.txt
t0_77c076b134d25a9709f822e73974855a20311639.apk_flows.txt
t0_77df000d8b811d19cc26887fc63ba797f4865e94.apk_flows.txt
t0_7804662a556ec5f7f2793f9ef53d4a75fc6aaa73.apk_flows.txt
t0_7833442a09bed272e6c177bf22b2c6995609a354.apk_flows.txt
t0_78a0895df436b6e2554a17edaa892a70998a5dfa.apk_flows.txt
t0_7905508572539b3864bc6af5d24a129a0df3484c.apk_flows.txt
t0_79535d84bb8fccb7bbae01bf339f2000bd4e7fa4.apk_flows.txt
t0_79902b2e49c55ae1ce42bd96bbaa918152bcb6ed.apk_flows.txt
t0_79c83a57af24b61670f4a8f4da4adf342e2ccdde.apk_flows.txt
t0_7a3b1f2bd8dca8070617f97e7a7309f768686ece.apk_flows.txt
t0_7a516ac5b21e594073be842b3f73480479df2cdc.apk_flows.txt
t0_7c0af89dd083b97db3dd70b7a2329c4a21a2c592.apk_flows.txt
t0_7c1bd55fbcdb1bcebcb45f90850cc14d7e75030b.apk_flows.txt
t0_7cbab235f635eebc89868591de12b46d7733d2be.apk_flows.txt
t0_7cddf3742646e176db32f2ec9acb7e0f44584b4b.apk_flows.txt
t0_7d7360162a5d3f3a87155ee77cc031a2d0d54258.apk_flows.txt
t0_7da266aac0dec80ff4e61c4d5b45bcaab4171fa2.apk_flows.txt
t0_7dae6aa7e2aad75902e2018a1b4f1d370bab0803.apk_flows.txt
t0_7de0682d673c81e238ee330a0a62cf34001fca10.apk_flows.txt
t0_7ded7bb7041acce78e85e811c0ac048338bdc2d9.apk_flows.txt
t0_7e04d1854382dbb42417ab4e5eab142ebb482ff9.apk_flows.txt
t0_7f11794529652cf3e785e1c51b9ccbf1f00bce4a.apk_flows.txt
t0_7fd7f230cecc1ae386111103ede96f36d6081ecf.apk_flows.txt
t0_806aaf7772889ae61d64dd8c40e674fc3db497b7.apk_flows.txt
t0_8136540e5888ba6f77e5e6a10563b3cfa201a2ea.apk_flows.txt
t0_81a3d4e7b922a787e58d63e4aa506615e5932d71.apk_flows.txt
t0_81eb220580671c897b7c6d47302c6966ad0793e8.apk_flows.txt
t0_82475d14df547f6daf29d42cfc861681911bc03a.apk_flows.txt
t0_825146fcd1da9271ae358fe5b3cd4df88acd8e14.apk_flows.txt
t0_83b489876360a9e3b5c5ea8795d0225a87a82145.apk_flows.txt
t0_8471d7a40b8162b4674fb85cdbf7fbe91565d5c5.apk_flows.txt
t0_84a879f0af703e586fe0889b3d87ab380ff8a122.apk_flows.txt
t0_84d1a9db61279bea4f40a01babef3a3175d7911f.apk_flows.txt
t0_854cf2acd244e0d23f3990f869b2b6e3e8eec13c.apk_flows.txt
t0_862f9ac752d7077ac30ab9f2c8333c283e1ea7ce.apk_flows.txt
t0_86679f68df83af9b2fa01ba34fe2de078323f6b2.apk_flows.txt
t0_866b2b51c3e082906bbdcd2b14385b982bd2c733.apk_flows.txt
t0_86f163d9e136db8d95d84de1f6d0bc9ac1ff146a.apk_flows.txt
t0_873778914f860d277af5f1bc31cae6c80f60251d.apk_flows.txt
t0_873be3e41df89cd1441eab588b0f8ea75427f681.apk_flows.txt
t0_87f1c941ad20b9e40fcbfb165f7fd103388b55d3.apk_flows.txt
t0_87f1eb6baa69745d306e8765bb085621410c241f.apk_flows.txt
t0_88128f4c6edbb5a415dbc3510191e5b8b1ad2416.apk_flows.txt
t0_881ee009e90d7d70d2802c3193190d973445d807.apk_flows.txt
t0_8b7cb2fede61ab69282ac7ebc9d4f96cc743db74.apk_flows.txt
t0_8b8f81bd147f3c5268ea67df8daff5dd2d5c011a.apk_flows.txt
t0_8bb6106b7c1160e8812788bbd16b563f5a00080a.apk_flows.txt
t0_8ce59aab101b4aa077c61b249e69646a38159afd.apk_flows.txt
t0_8e281d5429631a015b79a7bc99caad1995a4c47c.apk_flows.txt
t0_8edb188204c6ad79006e555b50e63705b68ea65d.apk_flows.txt
t0_8f3cca7c9c0ee16af164b8cbc989580ef409cac9.apk_flows.txt
t0_8f7bf37face686ac456c21dc1dad132f077ce626.apk_flows.txt
t0_8fc445ba6e8ef561607a41fc83008f92890a026f.apk_flows.txt
t0_9059a372c6e9a9863bd070c6ee54bdd906e3a566.apk_flows.txt
t0_9066a0fc37e4f88bda9b5377fc1d1dd3737e3fa0.apk_flows.txt
t0_90f568425cfcdea3fe19b3de93601eddc6bdc0e5.apk_flows.txt
t0_9119b2bb385d441dbad6137819f8d9b721f65cb7.apk_flows.txt
t0_912d426b2feff4f55b313bb3baaa0c59e93968c0.apk_flows.txt
t0_91deec899c6df09ef68f802979c2697d8a8803be.apk_flows.txt
t0_92888228c556f94b8be3d8bf747a2427481f32d1.apk_flows.txt
t0_92bae628c4b5b36606ce285ab8eacad8e6225350.apk_flows.txt
t0_9321abaf319603ab22473c60b624405c3971f0fb.apk_flows.txt
t0_9328e1b46f3a01af004fcd8b74b509ab81992b28.apk_flows.txt
t0_9432cff9e78a834d23269e6cd6d4f5766ee705d5.apk_flows.txt
t0_94a66e70f368b76a0b2bac08ef8178b90c630f27.apk_flows.txt
t0_94b56252ff610126135c568b1cc7b92405b9e608.apk_flows.txt
t0_95111f6a0c0955d51ad209a0c7465b6ff7a8af84.apk_flows.txt
t0_9651b90ff35e7cab5b5ce026297d5e3ed6524471.apk_flows.txt
t0_96cf47b898f8a4440b578f3564599b358e2eafd7.apk_flows.txt
t0_971b3df7ea0f9134b69a1c1f89bbd09d085ca855.apk_flows.txt
t0_9797079492eb16667cadc4f1b17ca9b0fbe4a967.apk_flows.txt
t0_98057097b1810c2a08a4662d11da3f8fe1bc6ef0.apk_flows.txt
t0_9814a618970030102e7050c1d470076f650e357a.apk_flows.txt
t0_99df5865b167ec223766f6cbcfb0e02a2f18ef3f.apk_flows.txt
t0_9adafe5ef4457152cfaf5628e30e7e1b8b078669.apk_flows.txt
t0_9b0ffb73086a0b982c76d857c264ffb5b8e0b4a5.apk_flows.txt
t0_9b62e509d57479037fb05581e37e4e710471fb97.apk_flows.txt
t0_9b96207a06ea8f83f07cc018b708242d4ccdc8f3.apk_flows.txt
t0_9bebe8048ad09885f1c023cbe697144ce8b9cb03.apk_flows.txt
t0_9c5fde4e30ab5e138fe9a2930d8a4a24e1a294b5.apk_flows.txt
t0_9c75204cd29415012cce21a4e23262cbc6d80442.apk_flows.txt
t0_9d67bfc00840fc7d76eccee95ec14fcbfbadcd02.apk_flows.txt
t0_9d811ebf06dfb749209490b70c302f88c3a811dc.apk_flows.txt
t0_9e5297a369c840efab2c1f108ea2850dd38391f4.apk_flows.txt
t0_9eb483a76748b20d41bfabc48cf066cea5c183ad.apk_flows.txt
t0_9f2145a6cbf70f9cda46d545d2503756c78ddf28.apk_flows.txt
t0_9f37ddf243c7c35a67b4973d42028d7019177aeb.apk_flows.txt
t0_9f44e76df5b18f2f65c360367f3f2d91d46d3ad1.apk_flows.txt
t0_9f63afe73e7f8a4f6d7cb762836b444314e5ccf3.apk_flows.txt
t0_9f83dab3edddf0cac9cc34844abaf1ccdbee4019.apk_flows.txt
t0_9fc39c43012cd921bbcbf042a504cda995a1d366.apk_flows.txt
t0_a03e8db7dfba2c2ca62b92080c3d7ed26a87d8b2.apk_flows.txt
t0_a0b2c608addd28bfc0c384b4ba74c5a1eb2c729f.apk_flows.txt
t0_a0f141c4464dbe0c949945b0d4bca7117f032b9f.apk_flows.txt
t0_a13cc291f4464853e7453ae840124ae604d5d3f1.apk_flows.txt
t0_a368c8911ee6e8f9795cb8650fb5750bcd247337.apk_flows.txt
t0_a3d4a427d7dea00e688ed0fbb3235378b7d08710.apk_flows.txt
t0_a3e6c041180974a6cf9416291dd9913290f71a7b.apk_flows.txt
t0_a413d2d5c7e5008b8f3082f59da55a4f4cd9c71f.apk_flows.txt
t0_a423d119f46cbaa5a80bba50df0b0c5f0afb68cf.apk_flows.txt
t0_a514d4079a1114195884e5468f8abc3d2d59ac4d.apk_flows.txt
t0_a54b9f0694cd61d4179f6603a41209dc51156855.apk_flows.txt
t0_a5f568fad02382bf1d5cad9fb094cd9a577d8d9b.apk_flows.txt
t0_a679b4be44bef1fbe035c52e052b661684bffa2d.apk_flows.txt
t0_a6803c0605b31d121c4214cfe468ab4e2e3b3100.apk_flows.txt
t0_a6f54854e82c4d89f426c7d3c47cab09051e6c10.apk_flows.txt
t0_a74deabb25a6bb2bc202914e204fd3d6b37f087a.apk_flows.txt
t0_a7e418c5f7ef2996781bcdcf638a0bd9b9ed3175.apk_flows.txt
t0_a80bdca60dee7d6e6284647eb6a62b045020da0c.apk_flows.txt
t0_a8634a3392690a13146fbfe286e117b3e34bf96e.apk_flows.txt
t0_a930e8a2d582c31fecefa25787091aa98f6d8759.apk_flows.txt
t0_a949cd6dc9b3eb02981155e5d569c9c987b48cde.apk_flows.txt
t0_a9891c7ce57448492a064b363ba7e56e60f77c02.apk_flows.txt
t0_a98cd8750568b4265e92071e37f063bcb5bd6281.apk_flows.txt
t0_a991eb18282e7fdd3be796d7788f09a3c507649c.apk_flows.txt
t0_a9c325c88bfc9eb090053e88da84e00f88f7bb15.apk_flows.txt
t0_a9cfc802ac9d024e087843ba37093925b8d2ac39.apk_flows.txt
t0_aa2218213aa8fbdb9b502e2ce03bbaf8cb494b30.apk_flows.txt
t0_aa8cd901bd0bf62fefda2bffb6ba115b97fb8496.apk_flows.txt
t0_aa9216c96ab29477966d0ff83b0326241f733734.apk_flows.txt
t0_ab75715fbdb881c0cac491b68e231df3719987c6.apk_flows.txt
t0_ac3532b9ad77f20a3bc1fa436bb953bb3d03456c.apk_flows.txt
t0_ada73fbdf13c7659dcc6e2f50901261454a0d6c5.apk_flows.txt
t0_adc8ac7b72a1055438773e7f075028df681d987c.apk_flows.txt
t0_add9e0c3d0b266c2c8839683e5282a6a9d23c337.apk_flows.txt
t0_aead12ec6d451b9a27831c8bbdba0f1267f59105.apk_flows.txt
t0_aeb2cce43ecc189a7c5a0a3249dbace35e070fc6.apk_flows.txt
t0_aef3879d788dc7eeb71255bf25da4b86d2330f2c.apk_flows.txt
t0_af727f5e23e69bfe2321f5d556c63f741dae8283.apk_flows.txt
t0_afe151f00f0b8382c083265b00b0158dabaac503.apk_flows.txt
t0_b0105adf6812604c76cda6cbeb0bafc756e1844a.apk_flows.txt
t0_b120c6eabd6f66d18552912aef93458168d17bf0.apk_flows.txt
t0_b1675db6fbb245478bc14041cfcb48b0086071fb.apk_flows.txt
t0_b1d5dbc7ac504aadccb47b5eb8f0f3f900a1fc36.apk_flows.txt
t0_b21f52062fd6805506edeb078e56812636ac4378.apk_flows.txt
t0_b457113c46b19dcec6ebb68efe24f1460237389d.apk_flows.txt
t0_b47f9257effd4d314559496e564b2ffe02d66082.apk_flows.txt
t0_b4dcd3de2575d52d052a03b9ce49fcd74e5657f2.apk_flows.txt
t0_b5c59a6db87300c6e22603ca32695261890369d0.apk_flows.txt
t0_b75794afc9fdd9cbea700e6df6cc5d33c294ef66.apk_flows.txt
t0_b765b9a9ad84c69857c42c206e775bae695cde9a.apk_flows.txt
t0_b78209c5da4eb84b6afccdb4a6690dd684812bbd.apk_flows.txt
t0_b8095d1c75912c4217a8f22524ced24a57ad2568.apk_flows.txt
t0_b81ad752d1045415ca419f7ec8846c2beb5fee1c.apk_flows.txt
t0_b81d2cefdd200a936962e8fd69a30ccac0483e10.apk_flows.txt
t0_b83856d854a0038ade9d15cfadd4454e7e8e8fe6.apk_flows.txt
t0_b85954f043b6bafe63c140b79b4274047c2a6200.apk_flows.txt
t0_b85c887808bacf694f92f472f91b47c1fa79b04a.apk_flows.txt
t0_b8f5c781f277ca5e2c7bc45e04b64b17a43a93cc.apk_flows.txt
t0_b910e54de31485e25a5a63fda6cae632125db615.apk_flows.txt
t0_b9774177e0b0b185dee0c1ead45c30e95c4c3bdc.apk_flows.txt
t0_b999d381d96cc3b40edce7048543f8a7a3f0e79e.apk_flows.txt
t0_bc180becbe4154e085321e8ebc86e89a03d6dfdc.apk_flows.txt
t0_bc2dedad0507a916604f86167a9fa306939e2080.apk_flows.txt
t0_bc63590e6bff6ad988d151c4717078d7cde3891a.apk_flows.txt
t0_bd249c0843df2f8acfe7615feba505ead30e5bbc.apk_flows.txt
t0_bd3abae103a788ef15283df01cd2b2f068113e60.apk_flows.txt
t0_bd7b1c30019219f8c5516976df9429f8ab7e59e8.apk_flows.txt
t0_bd7e85f5a0c39a9aeecc05dbc99a9e5c52150ba6.apk_flows.txt
t0_be3d613fb297aaa4b25e468f45cfc671fba67841.apk_flows.txt
t0_bea3692585279f964d253b1ab29ebaffe393fa65.apk_flows.txt
t0_bf7bb0fbe82883258d73c50ed65adda679308df1.apk_flows.txt
t0_c07ec5a74191cd16325742eff82334cfd49a45d4.apk_flows.txt
t0_c15d08ebedbd4a0e7582a63dea8ee8ec620fd266.apk_flows.txt
t0_c1af80d2e0e82e89c85e3bb4cbffcaabcc67a79a.apk_flows.txt
t0_c208283c522a6675221c42d289b71377d6961382.apk_flows.txt
t0_c20d53c5b40d94e571a6cfb83775cbbbd1f73565.apk_flows.txt
t0_c22ab450ae4ea678c4e8699ca0a83b4344e5ba3a.apk_flows.txt
t0_c25b15339b07530e5906539b0e116ddbc3f1589f.apk_flows.txt
t0_c40e61e7368f91e275853086ed3f4e3ca423dea5.apk_flows.txt
t0_c43c0408d458cc772d454ccd1cc06a9a92920eb0.apk_flows.txt
t0_c4a8bb0a0f0a2ce4592656972b7043fc9b3a56d2.apk_flows.txt
t0_c52db21b47ebe85d5512f55eb61bd4cbed51a11e.apk_flows.txt
t0_c62c1a9f91333afe8750ab03f2bed685af3c21eb.apk_flows.txt
t0_c63ad9901480e972f4052f325499b7db4e0be424.apk_flows.txt
t0_c73377c65245f2c872227de510366461a4584b1f.apk_flows.txt
t0_c7b74449fdf34430ce6fb208ac2495a9229eb8e9.apk_flows.txt
t0_c848cdc9ec6152bc8ca49cc72989f7d2ce56965b.apk_flows.txt
t0_c8fd90495b1bcaba78bc0ad962b6682290260061.apk_flows.txt
t0_c91b5452530cce21f1fedf711b8714ac00aca581.apk_flows.txt
t0_c9305cc8e1d2908708a49e8d9b932c2fdb952106.apk_flows.txt
t0_ca390cb2d8418e67a6c9d8d9a4395bbfdfa3a9f9.apk_flows.txt
t0_ca3c18fa9e7d402d57a3f2138b1d68754de65c86.apk_flows.txt
t0_cb195c32140c401fc3537093a09c67707f31a89c.apk_flows.txt
t0_cb9a6989a1da64c055db92ce66dc92c1f44216b8.apk_flows.txt
t0_cbc3e67ad8138febc4e4a6bf6c4c792f8c3db28e.apk_flows.txt
t0_cc2004559472d6d6dbc80d24616f4a49010b2438.apk_flows.txt
t0_cccc01c9df470e0acc4c070c9c1df4897b0cce59.apk_flows.txt
t0_cd49c650889d7f06c4faf662218ff58e16d15ce4.apk_flows.txt
t0_cd5a4113bae2bd24e056710051991fe7ca7d310f.apk_flows.txt
t0_cd776cd0d9e7a248a46ad3072832a9c1226d4ba4.apk_flows.txt
t0_cdd8f5bf0ab6becf447f48d5877068aa2a67192a.apk_flows.txt
t0_ce1d3ebfbe3e124b2889d15f8774cadc83d85458.apk_flows.txt
t0_ce6896df6c5b3ed712839d893d7149746746d0e4.apk_flows.txt
t0_cf5d1091b1fb87911054d10f1c1c17c3fa746d00.apk_flows.txt
t0_cfbbd1d105303385a9de03ea82291fc49c1d82cc.apk_flows.txt
t0_d08285c215c59f66ff33e02e15d28ee52ecb13a0.apk_flows.txt
t0_d17f928605cdb6e47dba6ba4de29a82b47793a08.apk_flows.txt
t0_d1bc2651fefe47da0467e09bfe2edc7220ab4146.apk_flows.txt
t0_d2634f51e364738c372474587767c02353d49a1a.apk_flows.txt
t0_d289df93caeb9ed46dad0c1cfb224b58ead4a79c.apk_flows.txt
t0_d30054d63104c30cb797769bcf653926c15a5e18.apk_flows.txt
t0_d319d302a900c847cb1b48bf15afd4b769acd16d.apk_flows.txt
t0_d36d299a66852339758e45a1d2164ca04290ab2c.apk_flows.txt
t0_d4165de28d03ab376f82ca965db90878b2600136.apk_flows.txt
t0_d5abe22cf6053b03b800e63a4e43ff94ee558e50.apk_flows.txt
t0_d64419d569a336f05d0eb799615097870934c42a.apk_flows.txt
t0_d78f3bcf582b0db812ca3e94526455dc0c369fc5.apk_flows.txt
t0_d803b6ccc3e0bba3f3b4fb1cfce3b80850576ad8.apk_flows.txt
t0_d81182ce46c8c394d46969c9f113cbd1f542af2d.apk_flows.txt
t0_d9131873112459783caa1f4ef27fbde023ef0486.apk_flows.txt
t0_d917ca7418e8c73af41e1bcd1b6672fea127ada3.apk_flows.txt
t0_d99165d50a17d5678b13e0e7f70605f9fd4b7e9a.apk_flows.txt
t0_da1c0e0bf21bddad8a1dfe97c42889ee16a781d7.apk_flows.txt
t0_da58fdfc0042315ab3393904ec602c6115d240a5.apk_flows.txt
t0_da74a8ec8bef375856dca74fdcd1dcfb659a73ef.apk_flows.txt
t0_da753a7780baabe4dee53b34c15c6465e3abe017.apk_flows.txt
t0_dafb28e620871d70eee3d4bdb94ca7d37731bd48.apk_flows.txt
t0_db39b744a7b5539063ef79aff60dbed359831026.apk_flows.txt
t0_dbe3ebaf0d677a79d220a013d47f9f2c20f24993.apk_flows.txt
t0_dbe9a747a9d11b209604fd2fe787ce160251fa8d.apk_flows.txt
t0_dc0955f5d3dac3758c468e97e5a656bb2c9c0467.apk_flows.txt
t0_dc6a4aa8113af49317942c6414295d4c16329e52.apk_flows.txt
t0_dc8e3234b94ff0d9080d179a7ac8bcfebb5200e9.apk_flows.txt
t0_dc93d24bf28fb8d3dea0d5a40f5b0641bb22851b.apk_flows.txt
t0_dca7d4258c19233e8468ba33e654b11abd9a66a4.apk_flows.txt
t0_dcc0f4c79272682fdc126b6d34ecf272b1f188b6.apk_flows.txt
t0_dd28560df3f824c0643b5514f40c96f75d05cbbb.apk_flows.txt
t0_dd830e1a37a73816f138cb7dca076224f39e2ee6.apk_flows.txt
t0_dd85081d4a9b74b2877f912931da3b78d03db3af.apk_flows.txt
t0_de5bf0bb5165254e2ba13c0171dd34ead84fbbbd.apk_flows.txt
t0_de6295de35da1ab6b5b52b18001180008041af82.apk_flows.txt
t0_deda50965ca4c389dfad6b709bd4f0d9c5a9c5f7.apk_flows.txt
t0_df08e5a4c3875c57889f44192166ec58649f7b2a.apk_flows.txt
t0_dfa7849c185f129a0ce643caa8b61ed71fb3c3ff.apk_flows.txt
t0_dfb41f567320ceb1987ef47125f54a315937c585.apk_flows.txt
t0_e0399fdd481992bc049b6e9d765da7f007f89875.apk_flows.txt
t0_e173b320dd39b7c0991ccde5a48a9af532ad9715.apk_flows.txt
t0_e1c2188a69727bf4ec4a5d72319cfe87428c7f35.apk_flows.txt
t0_e24a66105476944953ba0551cb9267ca80e4127b.apk_flows.txt
t0_e2e24c5767f29dbb1c8daa41e1975a975d2ea4e4.apk_flows.txt
t0_e3914c84ccc130d18bdfc1eb65c200ef0511a4cd.apk_flows.txt
t0_e3a0fb145468c8c0c345b90624d65aced87cbea7.apk_flows.txt
t0_e3b488c469a368628ffa825c99e1ceeafbdd4e62.apk_flows.txt
t0_e430aee3af177668b8c51fe842ed9f30b90e851f.apk_flows.txt
t0_e43fdcf1f0fa074788e9e62ab110288bd57ab918.apk_flows.txt
t0_e492db04c506dae0383b45d3997daab4d9114369.apk_flows.txt
t0_e4da0ad857fb66d74296f16af8558046e064dbfb.apk_flows.txt
t0_e4ef6aaedee486c7dc516075a82aab7686e2dd6c.apk_flows.txt
t0_e54bbd6754cb23075421daf3021576f5830f8ada.apk_flows.txt
t0_e63b1b5da3945f39608714fe2291eb42200f6d99.apk_flows.txt
t0_e69ff0dc668d635e4e0b5d3f26579d7bd1a7847b.apk_flows.txt
t0_e6a5e6f3938b04e3e2801d6d36ac0a3d789aa218.apk_flows.txt
t0_e77ba41715b7f1d1f6154764e448904ba10eaaca.apk_flows.txt
t0_e7e70782b094620e2bc268e55499e4f4fdc7a73a.apk_flows.txt
t0_e7ef270795b75040c736b6d86dbbe26412a7d169.apk_flows.txt
t0_e854ebd42822b4d33f7409aadbe2f5e03dfdd066.apk_flows.txt
t0_e8e171e053c83e628041c7d57059e040da13fa0e.apk_flows.txt
t0_e8ef1619f68642014cf48358828aafbecb9193ae.apk_flows.txt
t0_e9ec77452609049dc1b2480641ef48a961089a6d.apk_flows.txt
t0_eabfa101f1c7084216e63c51ac62bc43013bee3e.apk_flows.txt
t0_eae147d49a3f690c0694c3c9ffe01cfb50c04842.apk_flows.txt
t0_ec14d5198843a7bc99e42a8cfb4bcf3781e617e0.apk_flows.txt
t0_ecab27ca37ce26926536135b6423586c5f7e55fd.apk_flows.txt
t0_ece7557e46ec81c12324d5914c557fbd9e192691.apk_flows.txt
t0_ed7bc7e12c4a8b56a3b8589a5d4564e726f27b14.apk_flows.txt
t0_edad14044d5e0b055ead541700052f3d4a25cd41.apk_flows.txt
t0_edbbc205e7033174919ba22b01617fd731960da2.apk_flows.txt
t0_ee8ecd15b11a7cae09cf01c7ce7d622e77e7c8a1.apk_flows.txt
t0_eeb7c53e5070db7f7c6a322aec2961da135af93e.apk_flows.txt
t0_ef3b26c804757509600b42e806eaf3b6aa8cfcdf.apk_flows.txt
t0_f1079462762cc7bec822e97a3f1bfcfd5fa313cd.apk_flows.txt
t0_f1c0fe98d3c569ceedf77e9b509b9f8c7ea1969f.apk_flows.txt
t0_f1dc8e25efaca878f8c7d3b13db5031b3eb9f049.apk_flows.txt
t0_f1f8c997d77a6cf521a5f3adb9771d5c625f35cf.apk_flows.txt
t0_f23f192716423c67bcd2c488dd2c3d4ac46fae8b.apk_flows.txt
t0_f2e6fbfb960659f793dd91811f9b15b568f40f43.apk_flows.txt
t0_f30c4058f1e6cb46f81d21b263cf35454638275a.apk_flows.txt
t0_f3736147f7d46c5d96f8ae9f89bfd1f694bb871a.apk_flows.txt
t0_f55439b7ac0b72959246823031cd2a125cdd6f5d.apk_flows.txt
t0_f60e8275684f5d3cdfe6bc1cedfc337da56e0c0c.apk_flows.txt
t0_f636d4c61555222edb9e51b0503d5f9740781ab1.apk_flows.txt
t0_f637779a861f0ace02d52133ce213dbed0e83842.apk_flows.txt
t0_f78c75dd78accb8afa62109563451c4375172507.apk_flows.txt
t0_f7c5968bb95fc92e9eb229117c2dc094812d4942.apk_flows.txt
t0_f7df67cb12647522e71520839ae604729c204cb3.apk_flows.txt
t0_f833caae96318dc2758965aef77a0cd01ecb7238.apk_flows.txt
t0_f8c3a32abf4ea4ea94ee5dc3c75801c90c6e1145.apk_flows.txt
t0_f8f8ecede3328f4e350982e606005d032cfd0ca7.apk_flows.txt
t0_f906076084ef482f8e38552bd7999da1cd153eb7.apk_flows.txt
t0_f91b228018bc6320c78aa9179d7e33e18d95fc80.apk_flows.txt
t0_f98bf5c60349664e9b2bf0faed990d665eef7447.apk_flows.txt
t0_f9bb3fc540b5e45ea9346d267455e1487644e1dc.apk_flows.txt
t0_fa5b7a6189f41f8068cbe6b2cffb312cf80ca9c8.apk_flows.txt
t0_fa5f26e713b3994a87e0f51b8931737f2fb6df26.apk_flows.txt
t0_faa6c540f3c7e9ebd5b3dbbcfa248591721a3412.apk_flows.txt
t0_faff29dd2f56c853a98f9db09902edfb8de90a52.apk_flows.txt
t0_fb152aaff22b534949258a2b4c291bc79d6915aa.apk_flows.txt
t0_fb35f6545d5a9afe39bbf18645e3fcb55e81ac25.apk_flows.txt
t0_fca50480d3853230d765e50d18b93da7a8daab2c.apk_flows.txt
t0_ff05b8cf99a96a02752f775e131cede52688fa21.apk_flows.txt
t0_ffe62967b75aab56710110b26baa69acd47a81dd.apk_flows.txt
t3_005a8f98adf8609df7d956558a538ab19bac3c1b.apk_flows.txt
t3_0064b4c07ba12fa2fe9cdf462175010d604bc27a.apk_flows.txt
t3_012339544c49584aace4e99d6c9013d1c79e38dc.apk_flows.txt
t3_0177c2775de43572eb37e5de2803ff57eb297a9f.apk_flows.txt
t3_019c6d6aaf631118ea4dbbbc5c6f36c15c69fa9e.apk_flows.txt
t3_02c235ecf10fdba3afff584f6591a2959c18ec1c.apk_flows.txt
t3_03168dbe4239cb242c5217d4052995278077623e.apk_flows.txt
t3_037cf475f5d85deec6c3ec8a832af7899a94f794.apk_flows.txt
t3_039a4ca2b21250b6aa23754f6143411b0edaeec3.apk_flows.txt
t3_03c76b449271ad3025920b7d725d69b80d07638e.apk_flows.txt
t3_03f9fc8769422f66c59922319bffad46d0ceea94.apk_flows.txt
t3_044f87b435c583ca4aa116aef4b54e09bdb42c7b.apk_flows.txt
t3_04f9de3ab72f836cb528256eaa8047217ec94876.apk_flows.txt
t3_0657a70a655dc439b4222c8161b1f5a9667e84e3.apk_flows.txt
t3_075734ea39e1063ef8671a5d6469e0f15847daf1.apk_flows.txt
t3_09b143b430e836c513279c0209b7229a4d29a18c.apk_flows.txt
t3_09c56b746583cc5620ed7d405fea85105d387cbd.apk_flows.txt
t3_0a0c064d6d331df8c76ba9c4a7cbae7d7e19385f.apk_flows.txt
t3_0a17388b64b6b1e91763a88a0f08194ef4223957.apk_flows.txt
t3_0a51a11062bf106b10500cab45de1b091af2a06f.apk_flows.txt
t3_0a7dacb28d640c8a0acc054824313aecadaac8bb.apk_flows.txt
t3_0ae434e79bada1aafff3e33094d1c91d6ba4a4f6.apk_flows.txt
t3_0b4fa34a15216de42053dbcc569a2790c923db47.apk_flows.txt
t3_0b6cac1d3b2408748afaf5dbe807f29ef4e0375b.apk_flows.txt
t3_0d094b0de7650c39591715db67a957326d83ea22.apk_flows.txt
t3_0d7305c88dec708a3358eaa92586fb8f4f35111c.apk_flows.txt
t3_0d90ccfae4bb1ad17dd55768f380406ef3b0eced.apk_flows.txt
t3_0dfe1373eb42bf32a0780d34982d6f1898aafb8f.apk_flows.txt
t3_0e63ba4bb6712456e8f9dd79bc0ebb2466b13ce2.apk_flows.txt
t3_0e7bb8c78ab5f6329eb300e320115ed0b5787c44.apk_flows.txt
t3_0ef4a6bfa054343869e254e206d4e49b8fc5881b.apk_flows.txt
t3_0f2592644f77104f92fb5b487a86fb11ace6e747.apk_flows.txt
t3_0faedbf3a8835ae22e4eaec54020836f011e963d.apk_flows.txt
t3_0fc21460d8467fb5a2dee9aee7343069d58a4afb.apk_flows.txt
t3_10c8e28028b7ff046b7a84ec3eeb282ddc998d8a.apk_flows.txt
t3_113d68bbaa7ab1f0abd9f9a5b772f03ea6721e14.apk_flows.txt
t3_115b757c9df233ceca440897be072b08e33653c3.apk_flows.txt
t3_1162b7cde5e0797701c8d1371e3bfb135410b6f8.apk_flows.txt
t3_14a740b8395315a0b3f4a270031ab2ce86d489a3.apk_flows.txt
t3_14f5c14af60b5930f9dfbeed30f5529ba814c0e6.apk_flows.txt
t3_15a7c5b31c2fc87e85b5a91026f3b6df097e980d.apk_flows.txt
t3_164beb630cf99d13059d080bbc9c21c66badb9fe.apk_flows.txt
t3_171d896e28bee546d5c6c735f27dd289fca95e9e.apk_flows.txt
t3_173f041523a8c909a7b84f12a7835615f61d54ea.apk_flows.txt
t3_17797d0a81ce53902ec0166e009012b94e6e914d.apk_flows.txt
t3_179e1c69ceaf2a98fdca1817a3f3f1fa28236b13.apk_flows.txt
t3_180938e955acc7c546fc758bf88cd93a3c3e2473.apk_flows.txt
t3_182e4fdf226d96ec495e738a7f166271ba55562f.apk_flows.txt
t3_1b7d7935fb794dbbb37f4d7922e248bc268aa382.apk_flows.txt
t3_1e2d7c2416328f174d838a75ffe7e885c4d1beac.apk_flows.txt
t3_1e7203279f153c3282eeecadbf2a9b232bc4ffda.apk_flows.txt
t3_1e79add24a400eb12ecbec28e5c739c13671fc4a.apk_flows.txt
t3_207fd9f3619ee825d38cf5e48efc3522e42a9c83.apk_flows.txt
t3_20a2ed4fee860b65cc2c2c65a83f23d797bc3b8e.apk_flows.txt
t3_210b7eeacc17e713b045ebdf0ba40756c56c821a.apk_flows.txt
t3_22cb9404fa1d2e8d86ffd8bab1eb78d28ee2a9a4.apk_flows.txt
t3_2319ac96ca24f76d03c0fa3dabb242db85bd1dfe.apk_flows.txt
t3_243419ce2339943e5e4c7fe445454983020c03b2.apk_flows.txt
t3_24bb1ebdb9b5dae6605386032bc7ef4dd86606b7.apk_flows.txt
t3_24c9cf3d947fbb667df0e7536a2af36872011cd3.apk_flows.txt
t3_255a1b74428b5615d65f39775ec7234e27bd9e74.apk_flows.txt
t3_25d641a8c6cc45fc299276a7f9181fafd19be2d2.apk_flows.txt
t3_26bd36c65a9998feb5243acd87ee6994340309d4.apk_flows.txt
t3_27fdd4676cb374a111acbe673ade023204e11280.apk_flows.txt
t3_284b7f3493fe63c7672c9df8d56457be665aff64.apk_flows.txt
t3_284f8923fe4415ddf6ad1c23055cb9286debfd43.apk_flows.txt
t3_2867b64163407a4c8bad0a2775923bb4331b8f6a.apk_flows.txt
t3_28f638752960fc6e4e6aa69c8e0aa9e1977b180f.apk_flows.txt
t3_2aa283e61aa97d5618f116c9985542c81116f9c4.apk_flows.txt
t3_2cb88dc6ccd660a97233074d0c18296f5532d757.apk_flows.txt
t3_2d06a6a8d38d9deb70f1b1d4acf89b088271f865.apk_flows.txt
t3_2e3dbde6ab030e5754b4ec07bbe78f397defd988.apk_flows.txt
t3_2f0b49388c382ea319a8eff7dfd5db82aacd0677.apk_flows.txt
t3_319059f1faf9727d11fdcc032eb5e68f759476cd.apk_flows.txt
t3_31c8bd21fff04f233e0f00e9c8007bb37c567544.apk_flows.txt
t3_3219ead0bb43f7d2fd932c4fc79c91dba559d3e8.apk_flows.txt
t3_328a6913dfa807ebfebe0e5d798abb2529cd6e2c.apk_flows.txt
t3_32cd5dbef434b926ce34e89f0d185fe8d1b5fdfb.apk_flows.txt
t3_338ae6ebb7ade0b875c0d9f12caefbcc17a0a52f.apk_flows.txt
t3_342d4000200c83daf10f143dc686ef541da3463e.apk_flows.txt
t3_3503130130cd226fc6ff27ea02636bf03c0c431a.apk_flows.txt
t3_35338a58e68de0d835d7cb49db82215ca5ebbbda.apk_flows.txt
t3_35521071473ee840770f4cc9eb6b6f17203d55e0.apk_flows.txt
t3_35969ef00dc29bf7d8d3a5b9c436c087985d36b9.apk_flows.txt
t3_35ad670f65a667b48a5db4f3d13e3050fe282f12.apk_flows.txt
t3_37d499ccdbd4a6aaee403acac60bf13fdb4a4ade.apk_flows.txt
t3_384445dc9bb8068133c96a60ae7e440329ebee76.apk_flows.txt
t3_3854590e9c6bfb40005f18a101382c4a3ed03c02.apk_flows.txt
t3_399420f492787c166f50211b076361973c0d8350.apk_flows.txt
t3_39e3b5cedd3144e2def4b54b1c4cbbcf1d40c624.apk_flows.txt
t3_3a5cd9801c5e4792a204f9c40bcec092fd888c02.apk_flows.txt
t3_3b27b91fdb24302c70da9164bacd5e95aebb3768.apk_flows.txt
t3_3b76934c273eb7911ab974d9358acc4584f7cfcb.apk_flows.txt
t3_3d79d12d1abcddf9b53ca04469488a84a91aabdc.apk_flows.txt
t3_40156a176bb4554853f767bb6647fd0ac1925eac.apk_flows.txt
t3_411c2363b4847aa1ce073a3a6c3a07d9bdbe03f3.apk_flows.txt
t3_415ee7fdc39c4a4102bf3513338c37a60773fb4c.apk_flows.txt
t3_452d6acc582168089f8462bfc169b5c3e555ea2e.apk_flows.txt
t3_45fd0de43d16ebd4e8a25262fb2125a8d50a4963.apk_flows.txt
t3_463d8bac6f6d4646c469e8004d3f929a2cb8a269.apk_flows.txt
t3_46454396937f389cf2e438b7047a27350b9f019e.apk_flows.txt
t3_47aaece3cc2f6648edcde48be3265b916e0a552b.apk_flows.txt
t3_493bd7fd1ac8d588f0a999b80bbc4458a293325e.apk_flows.txt
t3_4b091e27910ab73c4f54e7938b766657d48d4468.apk_flows.txt
t3_4b2fc99330921fb64d5465ff1e6a7fc2264870c1.apk_flows.txt
t3_4c1775c28def41a221e5bf872c5e593de22bb9a6.apk_flows.txt
t3_4c65adb9d9d1a16f91ff9ed9e3a5be7cbf82b19d.apk_flows.txt
t3_4c9f885680124dbcb8d590704d0f8dff4602f909.apk_flows.txt
t3_4d39696564dbbad0eae11f8b5d5617dd5d972d7d.apk_flows.txt
t3_4ff28a2946bc1fa9e826e85f993b6ef5d86df63c.apk_flows.txt
t3_511c8a6c799886aa5c6e731d28958550d9c05aae.apk_flows.txt
t3_5175312569352bfa929530c64b12a54a81d9b088.apk_flows.txt
t3_526b8f128e6f16e2a1d200b3d97230e17ee75fc1.apk_flows.txt
t3_532a93bfc6b850b5ef04f06bf1a1334ed8c18a0b.apk_flows.txt
t3_53c335b96e05ed1a6c49647585f33e0ebe495d58.apk_flows.txt
t3_55c0edc67efef505d728d7adfcffe755021c9964.apk_flows.txt
t3_573fa43ecbebf1eabf94f747ad4fd91394183afa.apk_flows.txt
t3_579016281805dcbb03abb5e70cc40a316ca02540.apk_flows.txt
t3_5791631af5c922a5d9f72721a1f0016d867a5dd3.apk_flows.txt
t3_57a5d985e6c61d943562f51963ba4babfbfc5605.apk_flows.txt
t3_57f988738b5991c40ec90e8ea9145b4cdd218f32.apk_flows.txt
t3_5940b02bf39693c90ce59144b226fc6dff53228a.apk_flows.txt
t3_59e64dcd3c4c6a04afd04f542b13b25ac68d23ec.apk_flows.txt
t3_5c619e5d620ca4a8c5c865862c4014468e455bf2.apk_flows.txt
t3_5c954c5e533d182d4d3442396ac417fa22a3e31a.apk_flows.txt
t3_5d4849121562ef989506a61bccf2eb0aa40cb496.apk_flows.txt
t3_5d81e5ded988b406ac71578d5cf885600b72c23f.apk_flows.txt
t3_605e048e7731c750df6965fba784a92c0f598b9a.apk_flows.txt
t3_6265fdd2acb56457d06d9b07d6d73eb37af5cdeb.apk_flows.txt
t3_6443225c102328cb9ce5299ef34b10328a06aa3d.apk_flows.txt
t3_657d6567d102d4d2185a4d9a9874d460bfb052c6.apk_flows.txt
t3_6639f9197631cfc1220e1f3d450af7e62aebb499.apk_flows.txt
t3_663e8eb52c7b4a14e2873b1551748587018661b3.apk_flows.txt
t3_67c101c7f59a560ea6a46ad49899c869e0541d65.apk_flows.txt
t3_67dd9be4236bb0c1de41b4489d514da977d9203a.apk_flows.txt
t3_696287b89f9c01178db1adc00bca09d7f730b254.apk_flows.txt
t3_6a2230335bb9696f94dffffccdb6c02898cd1af2.apk_flows.txt
t3_6b399c361280e83e8a8fcc811686ccf45b9ccf43.apk_flows.txt
t3_6bf0ae55fce70c8f668daa66ce343212772eddf7.apk_flows.txt
t3_6c12c6a47b14b5ef5e8ba9a35caab8d3a49bd517.apk_flows.txt
t3_6cddc0292bf8db5dd5d933d4e443701816d186ae.apk_flows.txt
t3_6d3b9cdf559443db567113585b40eef459307c94.apk_flows.txt
t3_6db6ce3ea3573088bb3f64d6a64a73bab565b38e.apk_flows.txt
t3_6de51c633c02b8fecfbecc5ce8dece09e089cb07.apk_flows.txt
t3_6dfcde1c6040f54691ca88414ad0486afa6b522d.apk_flows.txt
t3_707f94a0d9ecadc19b254cd93e69f792a8f97b18.apk_flows.txt
t3_708ac57b06ad3ac699e6ac7b8b9178244d94e776.apk_flows.txt
t3_71938a720f1a17bab0669c3b089aff8f4b3af1f5.apk_flows.txt
t3_745d9b1e0b903bee59e350159f6f3a4f3f773a92.apk_flows.txt
t3_7560eaf83f211bb68472b437fc447ceab9679947.apk_flows.txt
t3_76d76c4e1cd94dfd1944f589c865f4765ed8c180.apk_flows.txt
t3_77739f780661ac6857a5d7fd3011827a78d6281f.apk_flows.txt
t3_777e20b423286859c76091281790c66e19d1fe93.apk_flows.txt
t3_7820f21605a7b5904cf2fbdc06dd5b54a764ae80.apk_flows.txt
t3_79535d84bb8fccb7bbae01bf339f2000bd4e7fa4.apk_flows.txt
t3_7a3b1f2bd8dca8070617f97e7a7309f768686ece.apk_flows.txt
t3_7a7b52281a7999f3d3fd2ae3ec8d3d2926722402.apk_flows.txt
t3_7b4a2e82c0b61e2f260e60bbb2e5c16ea864ad46.apk_flows.txt
t3_7c6265abfce9d634abcf286893f21ff5efa14f97.apk_flows.txt
t3_7c837a2b674f23aac7698bb6bd3b909617a2c1af.apk_flows.txt
t3_7cd1122966da7bc4adfabb28be6bfae24072c1c6.apk_flows.txt
t3_7cd1dfa05ac5c74205a234204c0af583c18a0fbc.apk_flows.txt
t3_7dae6aa7e2aad75902e2018a1b4f1d370bab0803.apk_flows.txt
t3_7eaa0c286010d11e6c1c176fa674200457fa6434.apk_flows.txt
t3_7eff2b5fd79b2b36a1fe71ffdb3ccf602d37e442.apk_flows.txt
t3_81a5191109f358840b153f01258e1dc6a58d0787.apk_flows.txt
t3_82552e838199f9a2d4a537588fb77ecbc44a3ea8.apk_flows.txt
t3_826ff3d8621468a45d4e1f87873c6b7d4e957608.apk_flows.txt
t3_83b489876360a9e3b5c5ea8795d0225a87a82145.apk_flows.txt
t3_84e5cbcf2d44aa525b76ca47131af3eaf81a2bc3.apk_flows.txt
t3_85c23bb6d714a3a3bb4780a2e6254af633bcbabe.apk_flows.txt
t3_873be3e41df89cd1441eab588b0f8ea75427f681.apk_flows.txt
t3_8784ee14bd5f4e1ef31073cc42bde7fa6671da43.apk_flows.txt
t3_87ce24ad5d22a5bb3b1585e5a428d316e89fb9b7.apk_flows.txt
t3_88ecf892ba8055b35f2351da386380f6afef357f.apk_flows.txt
t3_89225d8c8dcc4c81789c3958e07a51e22fc94af5.apk_flows.txt
t3_8a0dc69be439d135768b3446830a2d3430cb6280.apk_flows.txt
t3_8a15729f0f7fcdb68782fe78429a714225e58610.apk_flows.txt
t3_8a61d821341fabd0dfcb1d2d666f2e55ed14819a.apk_flows.txt
t3_8aa591f77cdc5ef813ce42a6c284c565eb2c2e3d.apk_flows.txt
t3_8ab0d7276837b96bff42867fc7c09981c26727be.apk_flows.txt
t3_8b59fff658d30a1854d8dbc52e3b6e6753afcc8c.apk_flows.txt
t3_8c4c2e014c4395664ec9a10d192e86b7d0142cd2.apk_flows.txt
t3_8c841b25102569be4a1a5f407108482473fad43e.apk_flows.txt
t3_8d88ac6b82f52241f694f1c9240831567f6a6679.apk_flows.txt
t3_900c6c327e33b655fb17a161e9e9b8b08a2d8fd4.apk_flows.txt
t3_91bd5de41aa392ee2f8c89c0ae2cad622f6ef19f.apk_flows.txt
t3_92888228c556f94b8be3d8bf747a2427481f32d1.apk_flows.txt
t3_9328e1b46f3a01af004fcd8b74b509ab81992b28.apk_flows.txt
t3_9458cfb51c90130938abcef7173c3f6d44a02720.apk_flows.txt
t3_94bf70ca8c444b7bec79efa0807a282fb8c61964.apk_flows.txt
t3_94cd5182fa01b67b41f45812db455802c66adfa6.apk_flows.txt
t3_95ad3b3748c22753dde761cdd7969f60f1850e1d.apk_flows.txt
t3_95c92775a03780cad76a8c6987573e58aa228164.apk_flows.txt
t3_9886e2dacd57ba427f4f2dc5c2e875512d9c1649.apk_flows.txt
t3_999773583e37de010ebf40756e2300f002a8f31c.apk_flows.txt
t3_9a38d6f716f185f418c3f2c292cba36f8c13c557.apk_flows.txt
t3_9add8d412192bf5cc4e30f56355c0cfdf183e015.apk_flows.txt
t3_9b0a2e883b5dd5d6df9f6222fa2f3c27b7cb2735.apk_flows.txt
t3_9c756e1c97b987fe6104226086a2403d918e5d34.apk_flows.txt
t3_9e10b4283096b5e0355eb6656d57cb5f785687ab.apk_flows.txt
t3_9e67537c74931bea86ef049307b345bc3b5b9507.apk_flows.txt
t3_a03e8db7dfba2c2ca62b92080c3d7ed26a87d8b2.apk_flows.txt
t3_a16aff87d99ddb86afb2d7835b31a297f5b1fcf4.apk_flows.txt
t3_a311fe380aa4a9802148cb60a92582df0de0d198.apk_flows.txt
t3_a35937acc1a17eeff9a2015c6bbafddaaac44897.apk_flows.txt
t3_a3a91e61b1b6614c7dc3fa5bb8121645f60b8021.apk_flows.txt
t3_a3e6c041180974a6cf9416291dd9913290f71a7b.apk_flows.txt
t3_a4b0e758e2f2c3da8359e410cbc8bf4c91bd6dab.apk_flows.txt
t3_a796f3e372125c66fa3d8ba7b85bb95a0255fdae.apk_flows.txt
t3_a7f33bd0441b5151f73fc7f1b30fbf35a9be76e0.apk_flows.txt
t3_a90475d3b28e2d38f5097a11f5dc58424258371f.apk_flows.txt
t3_a9086c684d2e495a3691dd253921cd050dc9e820.apk_flows.txt
t3_a949cd6dc9b3eb02981155e5d569c9c987b48cde.apk_flows.txt
t3_ac3ea28d293ac8ca11983e1bf9ae41cc9fcca27a.apk_flows.txt
t3_aca8b04659e909d9bb2e35c6baba768d8fdad3d0.apk_flows.txt
t3_acfdc62afce378f9f42100d9c2a4e1b0387815ab.apk_flows.txt
t3_af539222e6c766388af7ce48aa08e1880e4ac369.apk_flows.txt
t3_af95facea976aff99ab46049f59a07698dfeb6f7.apk_flows.txt
t3_afe01215aa167be32603b9b7e2b7742ed5b04c6f.apk_flows.txt
t3_b14de36c493240f98cc610982b4ff72d9939907a.apk_flows.txt
t3_b1d5dbc7ac504aadccb47b5eb8f0f3f900a1fc36.apk_flows.txt
t3_b56f73b0a5e25fb8e4ac0f1c0470e563f96dda96.apk_flows.txt
t3_b6d0cf473002347796a460b80209aacb0ce4f5a3.apk_flows.txt
t3_b6e84db273ea4521e57a8d10da14c0ccac93c6ea.apk_flows.txt
t3_b6e8a2b5238ff2bc92917ffecb3eb22bbd1ca4cc.apk_flows.txt
t3_b7f43489a4e96af87028de335ff2d10651b253c8.apk_flows.txt
t3_b8531b6ebbdbf10d11864b59ae0d4305089c674b.apk_flows.txt
t3_b9a435dd0b3792e79b4a436161677c186914ab72.apk_flows.txt
t3_ba14f2b2a2fae909470eeff71d3efe71e7558b72.apk_flows.txt
t3_bafacc1f06ad41da933355a08e93df0463a18d94.apk_flows.txt
t3_bb7b3a02c52d8212f6abbbbf940ca253ac71340b.apk_flows.txt
t3_bc080ba29c56b05d8c0a858ca865296b7b140b34.apk_flows.txt
t3_bf67f73db260851f058ddd21c575f2b31e26f356.apk_flows.txt
t3_bfed80326ddc2cefef92d8bed23ba14c23a44e75.apk_flows.txt
t3_c00ef6839d831c0bfbb4a05818803fe864d9968a.apk_flows.txt
t3_c01c9564c8da0c353adcd987195d1e2bd0a4262a.apk_flows.txt
t3_c2b671f391876d2fa015c0c18df6566ca4112fa7.apk_flows.txt
t3_c34f9dea764c90d559290a630b2a67e104291a0a.apk_flows.txt
t3_c37c564042e85946ae5d3a45990e41628bae92ad.apk_flows.txt
t3_c395e81cef9e5bafc145653c08f3be272f0b1ca6.apk_flows.txt
t3_c440f360b45118497935b03328db46d8c8bb6cfc.apk_flows.txt
t3_c63ad9901480e972f4052f325499b7db4e0be424.apk_flows.txt
t3_c6530612bdaac63c02cfbbfb4f9c7dedc83ab1e4.apk_flows.txt
t3_c6e0d09385ee631b4245a1dd9c2e74c4772c026b.apk_flows.txt
t3_c73377c65245f2c872227de510366461a4584b1f.apk_flows.txt
t3_c7d05f5d045ca4e7d7da7dd576093570ef364ee8.apk_flows.txt
t3_c7d42cf28333da887307d26aab209e74c5571d7d.apk_flows.txt
t3_c86d267f647ed9d07994ac2e86617abd8d3f6366.apk_flows.txt
t3_c90a026b8b31ca1e6ab7157b65809fc0c301523a.apk_flows.txt
t3_c91b5452530cce21f1fedf711b8714ac00aca581.apk_flows.txt
t3_c9308df0b222fc89128a2b0b7f972c5c24c32b80.apk_flows.txt
t3_c93250119952bbcb1cba5d82ccab0e46419b9feb.apk_flows.txt
t3_cc2004559472d6d6dbc80d24616f4a49010b2438.apk_flows.txt
t3_cc41c23be6baa51a2d555f397b9ca9144939885f.apk_flows.txt
t3_d04f161a5fde3348008f0aec9770647869570fc6.apk_flows.txt
t3_d0e451e5a3c65454ff045c5b20000890fb070457.apk_flows.txt
t3_d19be71348f28529b64d366e04c076b43314b26e.apk_flows.txt
t3_d2493329eb7e12cc4fbe2b5a1846fb78a8602dea.apk_flows.txt
t3_d259cb08d4789508fa214b3fc5b02450cd0c2ddd.apk_flows.txt
t3_d2ed8943147e7242052a6a660c1681d656ac73dd.apk_flows.txt
t3_d2fdaf2c293adb2977c8d3c7aa7152553021f949.apk_flows.txt
t3_d3ed2ed8b40a9786c278d5d88d9491a31403c296.apk_flows.txt
t3_d43c079e3966d546d788a276cb41a3693a22e73f.apk_flows.txt
t3_d4cd94c3a9befed1e040cbd0a4f2b9a62915332f.apk_flows.txt
t3_d99165d50a17d5678b13e0e7f70605f9fd4b7e9a.apk_flows.txt
t3_da1c0e0bf21bddad8a1dfe97c42889ee16a781d7.apk_flows.txt
t3_da909d284dcefcd2b83db2367e36a5f960dc76aa.apk_flows.txt
t3_db2eefaa78778eb1ef54e2eeca0910766a07d104.apk_flows.txt
t3_db39b744a7b5539063ef79aff60dbed359831026.apk_flows.txt
t3_dbe3ebaf0d677a79d220a013d47f9f2c20f24993.apk_flows.txt
t3_dc46fefc4cb3d0fc0fcaa4fba76e5d5c7538da2f.apk_flows.txt
t3_de4ca72f1dc001c37c29235cd47f5c62ceadd28f.apk_flows.txt
t3_e0c743418c2e3cfc1ce8ead748124480f6382d33.apk_flows.txt
t3_e0ff2e3c2717661a13260a7f4d396b3a9d6f076c.apk_flows.txt
t3_e2415c9b5e62d3fdf0d6419edf0d1002637b3bd0.apk_flows.txt
t3_e26903be43d02aad00c9ce272f2d2604cb6792a3.apk_flows.txt
t3_e28fedd06e1805fa7eaf0a1d26a45106746cecfd.apk_flows.txt
t3_e3bc81c89b09b7845efe44ef7e5b0fdb34bc3d63.apk_flows.txt
t3_e3f0de8ad898f0b5a7c9d327ffc266635b8af32b.apk_flows.txt
t3_e54bbd6754cb23075421daf3021576f5830f8ada.apk_flows.txt
t3_e63b1b5da3945f39608714fe2291eb42200f6d99.apk_flows.txt
t3_e84eb4d521c858f088a798004925c6a19f579596.apk_flows.txt
t3_e8831cd2ec2e091cc3291821697851b1c65125d4.apk_flows.txt
t3_e8b1b6e3910bd79d6ac560a673d04aa6c31cb05f.apk_flows.txt
t3_e8e2e280b9f01548653e5e7d80b97b0662827276.apk_flows.txt
t3_e95db7888465525ba1d864dfddd9fa5e779d9048.apk_flows.txt
t3_e9c841757db6816f978deb573fd8e8ed0fe6be3b.apk_flows.txt
t3_ea09090859ef11ff566b2d82c2cde962f07eea8b.apk_flows.txt
t3_eb32bc6a768db927af6555c000498c07f796b419.apk_flows.txt
t3_eb8feaf09017169e5e182add3f9b095a43b63439.apk_flows.txt
t3_ed7bc7e12c4a8b56a3b8589a5d4564e726f27b14.apk_flows.txt
t3_edad4c506ac44664908f46111014b6c090a9e259.apk_flows.txt
t3_ee52a9d09cefa1206972294d566e18493f0fe618.apk_flows.txt
t3_ef658ddcaa20cf3ea196e9b1148988e64d8aa75e.apk_flows.txt
t3_efcbfef99eb39b87fc08a54fe0116937effb642c.apk_flows.txt
t3_f0e35589e0d5a2c92d9aec87987d9479f7dd321f.apk_flows.txt
t3_f0fcc17f26d3a343d27ae5dd640206eb6be8a88d.apk_flows.txt
t3_f1e4a265c516b104d4e2340483fca24d60be4c08.apk_flows.txt
t3_f23f192716423c67bcd2c488dd2c3d4ac46fae8b.apk_flows.txt
t3_f2bed732c841a2fff018f9b9c971bbeb994565f0.apk_flows.txt
t3_f2e6fbfb960659f793dd91811f9b15b568f40f43.apk_flows.txt
t3_f372e800dfce9f077fc7db296906e019a5aa8d69.apk_flows.txt
t3_f4fc04c1e1566c80875160236641cd5b84f7da57.apk_flows.txt
t3_f5c1a86b016f46ddcfbce31f5886c18404da8a30.apk_flows.txt
t3_f61e91e26b4bbafaab5ac4759a0685f89a778196.apk_flows.txt
t3_f65114c2a2e776f88864801036ca96f332ccaf65.apk_flows.txt
t3_f7ce49349f79cf3bee0af2dbea25521ecb89a3b3.apk_flows.txt
t3_fd80ddd0a15a6079b29e5012ebe99fca7ce7d44b.apk_flows.txt
t3_fe2a9cd60d335a249daf0cd2a711d2328b989e8e.apk_flows.txt
t3_fed6ceb652999707a33584dd035b5ee40ddba6cf.apk_flows.txt
