/share/seal/hammadm/androZoo/gplay_pure_apps/01DC2D921CD12B451AB0045999F54F0784651A2B7DF2ACFF83031B4A9600C2A2.apk
/share/seal/hammadm/androZoo/gplay_pure_apps/0141AA0BB75D35D7DFFC0EB93B398B158321EBB458718312683131103731F01D.apk
/share/seal/hammadm/androZoo/gplay_pure_apps/01959E519E8230E19E3012BA55C4D4C93E06BBE8A379FA03B6EE755792FECD06.apk
/share/seal/hammadm/androZoo/gplay_pure_apps/0052310ABB669D5A9C521F507FBAD40DEDA1F7A1A0A5C661DB9BB32AE24E7BA0.apk
/share/seal/hammadm/androZoo/gplay_pure_apps/015CD69F1E85D18B473B4D6C942BA406121BB5422DB4F4619E1EEB7B28437C9D.apk
/share/seal/hammadm/androZoo/gplay_pure_apps/01489F622EF5D5108A1F621B80FE3792CBB479C0A2746361F4F41FB9D3A8E0E1.apk
/share/seal/hammadm/androZoo/gplay_pure_apps/01117342D1715A03CA4CDA8399E05B55AD434B5C8C42D1FF108458F0414B0309.apk
/share/seal/hammadm/androZoo/gplay_pure_apps/0128F9857FC61AA4B4BE9E09DBBE3305F18B9E1DB4AF4962DF22F73332F766A3.apk
/share/seal/hammadm/androZoo/gplay_pure_apps/01021289379E5DD6675FF56BB9064DFE814E78BA7ADDDE7793EC8FC08A36106D.apk
/share/seal/joshug4/VirusShare_Android_20140324/Malware/VirusShare_7106269045284376e127948b48dcf3c4.apk
/share/seal/hammadm/androZoo/gplay_pure_apps/00BC174B7A4DA94783FB61EB093137D50B643CD4C716F48BE94260826760176F.apk
/share/seal/hammadm/androZoo/gplay_pure_apps/00EB865B74D3165413D715CE917F135B1F371BAAEAC87C5713C295F654EF10A5.apk
/share/seal/hammadm/androZoo/gplay_pure_apps/00C6847971E5DCBA28FC23811F502A714323D6FFDED3F3F46AB8727FF6943AE5.apk
/share/seal/hammadm/androZoo/gplay_pure_apps/01DF3B0EC16342DA0D97FB1EE431EC1DC210AAE34698B09DDD677FDB3CC6DF3C.apk
/share/seal/hammadm/androZoo/gplay_pure_apps/01158D392870BBEDC82DC308CCCC6A8865BC318C564636572EB2BE14B3A36373.apk
/share/seal/hammadm/androZoo/gplay_pure_apps/0058092DF5420880CE54EB83F87738BE70F0827E0CF5657E0BA5B77E853850A7.apk
/share/seal/hammadm/androZoo/gplay_pure_apps/0219A613F29389A808FAA5415BBC48B899ED1B103E84588B5255C228B0C16969.apk
/share/seal/hammadm/androZoo/gplay_pure_apps/01C0415D5F4AA680A11E5002E7F89F9F3AD6326523EDCDDE32840E9C585BC3CA.apk
/share/seal/hammadm/androZoo/gplay_pure_apps/017B71E1DC347F1EE77A4E0442D0166FFD649AC801A5ED55293A2E9A43D33695.apk
/share/seal/hammadm/androZoo/gplay_pure_apps/002273CCC546C42E85DF0217C22EC99CE08DF78AEE2792054954960DDBF63577.apk
/share/seal/joshug4/VirusShare_Android_20140324/Malware/VirusShare_19cee3584eb0d6ecf6732e6b348b679b.apk
/share/seal/hammadm/androZoo/gplay_pure_apps/019E5811A79FE247683604E942E9FBF8CDB4CB69901221AC20D036AEB0340D80.apk
/share/seal/hammadm/androZoo/gplay_pure_apps/008EB2579B5EB7D2D2A39469173BAFCE60FDCF5C5AA9464F3D166B06C6354598.apk
/share/seal/hammadm/androZoo/gplay_pure_apps/01406A12FAED9EEF74F8758B83855023519CF23AA095516C1DDC9564FFB622EB.apk
/share/seal/hammadm/androZoo/gplay_pure_apps/01D991DE8129D8354216F589D89F0295B32F8246FF0A116ECA8FEF065046292F.apk
/share/seal/hammadm/androZoo/gplay_pure_apps/022CC548A76906A13036714611F2C7F17E8D0EBB5C7297B07C0B7C2FD35FAEF9.apk
/share/seal/hammadm/androZoo/gplay_pure_apps/0069D6093ABE4055D1C7D972D7F254621920E10BD9CFBE43193A3634907C125F.apk
/share/seal/joshug4/VirusShare_Android_20140324/Malware/VirusShare_eb3a3d92967c934bb6b09a6890dd4e20.apk
/share/seal/hammadm/androZoo/gplay_pure_apps/001DD6F363EFADD842AC2181445FA230CF0C21A212BAB073BEF05696F873F4E2.apk
/share/seal/hammadm/androZoo/gplay_pure_apps/021C6B5EBCEC18B1185DB8DF70ACF7B7F885DF8795ADF8700561FCC109FA6931.apk
/share/seal/hammadm/androZoo/gplay_pure_apps/018075A497A883A638F83C455F2EE1684450DBD4ECBE22F31E57EF84D21849C3.apk
/share/seal/hammadm/androZoo/gplay_pure_apps/021F721B621A7499C163EF85FF0227162184B7200F450820AC228B9AC9D5EE8A.apk
/share/seal/hammadm/androZoo/gplay_pure_apps/00B78EDFB506E3AF266D95BB863CF38A1E2A769CB149388850BC22FC4DCA8B24.apk
/share/seal/hammadm/androZoo/gplay_pure_apps/010190366EFA7F8ABF98F600BCFFCC2CFA8419512F61959244B78C63C5D19C7C.apk
/share/seal/hammadm/androZoo/gplay_pure_apps/00CD361A9756964F01F85F172616796C351AD37D64F3C47E37B416A27F6332E2.apk
/share/seal/joshug4/VirusShare_Android_20140324/Malware/VirusShare_daaf858ab54dc8973cc8ae302706a971.apk
/share/seal/hammadm/androZoo/gplay_pure_apps/00F5AA8A0912FA214C0FA757FA7389088CB7D937939F1B57825845BC8872C578.apk
/share/seal/hammadm/androZoo/gplay_pure_apps/01AA61002A3F4E0F335F698EE0678C77BD10AF403650CD7B866464763F0F8F3A.apk
/share/seal/hammadm/androZoo/gplay_pure_apps/008F50701FDD86F1E922B9562B0DA5EF2AAEEFEA4EAAEEBFA08BE54E84AB963C.apk
/share/seal/hammadm/androZoo/gplay_pure_apps/017D2E295209FE8710ADE4A56643EF0D25855366F2678E343D0138CF2AD6C6EA.apk
/share/seal/hammadm/androZoo/gplay_pure_apps/00CF8A614A27D6738D4B747597839AF2294FCDAE581129160664255F6CDEFDEA.apk
/share/seal/hammadm/androZoo/gplay_pure_apps/0105E411D7E2C9035B8C649B4BCBC9CA6C98F56D1B4D46C5856E2E6A7DC6BF77.apk
/share/seal/joshug4/VirusShare_Android_20140324/Malware/VirusShare_b389eb5dc6eff5e4f319f86a4c9f4675.apk
/share/seal/hammadm/androZoo/gplay_pure_apps/01F134145D498ADC49067E3BA88CEB77DFF2F1BAF8FFAA39E1C753A1AF9CE0A9.apk
/share/seal/hammadm/androZoo/gplay_pure_apps/00934596B574252AF9FDC1857B24D41EFA92889C102B6211643F2B9BA2F5F372.apk
/share/seal/joshug4/VirusShare_Android_20140324/Malware/VirusShare_5b5674c8ba87cbc163328b27eff24392.apk
/share/seal/hammadm/androZoo/gplay_pure_apps/00268F9513EB633A0708EE33549DCBCF28A87E8075AED64351AE632D0FE9E860.apk
/share/seal/hammadm/androZoo/gplay_pure_apps/0227EE201D9BB5E44496F18584203A8FFF7C2E1D671258252AFA2F34CA2FF32F.apk
/share/seal/hammadm/androZoo/gplay_pure_apps/004249E70FB91847F6788E11984E91923D4F141C9D5C595F653495DD01592B6F.apk
/share/seal/hammadm/androZoo/gplay_pure_apps/020A8FB1FE160D1EF6EF99754610073607A9BB258747D18A45A2F47872B6FA8A.apk
/share/seal/hammadm/androZoo/gplay_pure_apps/01A16BE07A2F43BF98A773AB73475701E779979828B1D397597AD32B346BBC61.apk
/share/seal/hammadm/androZoo/gplay_pure_apps/0031E923663B1AB4AC5CB20E02D65B35FFDC27244B65FE0A3D22D3C3AA0EFB46.apk
/share/seal/joshug4/VirusShare_Android_20140324/Malware/VirusShare_ca2ce8145dbd3ab0ddf111afd6add8b3.apk
/share/seal/hammadm/androZoo/gplay_pure_apps/01EF971FAB31103087E4008EDE3D60ABFD60BA56A155840E14A916FB6F1AA57A.apk
/share/seal/hammadm/androZoo/gplay_pure_apps/00B8A7EED5ED31BB9A86DCB415CFFC1E60A31DB7ACEB57B80161E64E0D6E3BCF.apk
/share/seal/hammadm/androZoo/gplay_pure_apps/00FB2BD1499CB0356755C560E12719AAA526CCFEB89314CC598DD11C902F33CC.apk
/share/seal/hammadm/androZoo/gplay_pure_apps/01DE4C1992F02AE7EDB0E478E9B36C342B4A1EA8312F051667477DDFAD26237F.apk
/share/seal/hammadm/androZoo/gplay_pure_apps/021346F11A4ADB97956FFCE895CE59989049F82466E71DBD340265E3635A190A.apk
/share/seal/hammadm/androZoo/gplay_pure_apps/00DE3346595413260BBC8978CA3041B0DCCB12098B20DE5E3354BA09CCC2D4DA.apk
/share/seal/hammadm/androZoo/gplay_pure_apps/01FF00B8B9CB2A4A079150410467E20C6F2EE51ED74A94C53BD945A21FCF7996.apk
/share/seal/hammadm/androZoo/gplay_pure_apps/01FE0D38F17AA2B3F6F9A16CDEA2D422B9EA71FE5978D60D52B1251F642CD174.apk
/share/seal/hammadm/androZoo/gplay_pure_apps/0031B6A1577A1556B1B23AA5E390724E1CDEC1084E490DF7637EC552BE0D9955.apk
/share/seal/hammadm/androZoo/gplay_pure_apps/01438CBAA86C65AA6A506DB233576C9F3DDE1C44E4140CD4A1002C462CFCA320.apk
/share/seal/hammadm/androZoo/gplay_pure_apps/00A5733D99194695918C65C64599BECB4B5062672A83701196DD0341090EA14E.apk
/share/seal/hammadm/androZoo/gplay_pure_apps/00B0748DFD3AE1E1D2EF3BE3D1BA2BDB51ACC3D36B181169CD9D45E8A95386F3.apk
/share/seal/hammadm/androZoo/gplay_pure_apps/00F6545534483C622B2239BA81F5B024102E16D97ABAD6D1F87960BB20DE0475.apk
/share/seal/hammadm/androZoo/gplay_pure_apps/01858F240B6656CB495914484011823328C87BAF5742A5B6DD6FC31096AA3FD8.apk
/share/seal/hammadm/androZoo/gplay_pure_apps/003DC2D1C264329CFAF8545EBF01801904F2444C92B41B1F5B76B9C3497E7C18.apk
/share/seal/joshug4/VirusShare_Android_20140324/Malware/VirusShare_8642afae61b13afc1dc9708d8d92b70b.apk
/share/seal/hammadm/androZoo/gplay_pure_apps/003DE0B6D782508E4093E382956EA38E7AFCC67B1B7A6C7936545420859395A7.apk
/share/seal/hammadm/androZoo/gplay_pure_apps/0222F5DC5A79E22C7A37A6DA19892E53E66ECC87EA60D61B5F00E5A93158ED3B.apk
/share/seal/hammadm/androZoo/gplay_pure_apps/01205304222076D615B22F58159D2FFE66CC859593D06A61F9FE14612EDC0DCF.apk
/share/seal/joshug4/android_exploit_apks/bf788012f4d07d420c0c9d12e58a2db47742a0afbcd1f97f51e61bec58694795.apk
/share/seal/joshug4/VirusShare_Android_20140324/Malware/VirusShare_b7b8093af63b074ba6320f1ac9b635e9.apk
/share/seal/hammadm/androZoo/gplay_pure_apps/0205A251AF0EB9B4E8D3B13C1EE4A39649B3C5CCA777700185113B949F984DA2.apk
/share/seal/hammadm/androZoo/gplay_pure_apps/020110AD8E10FD184F8C159CF389FCD275D17AB507948446C9660A8D7F892A98.apk
/share/seal/joshug4/VirusShare_Android_20140324/Malware/VirusShare_a742a3a89b9bcc1c8c45af2f4067e9cd.apk
/share/seal/joshug4/VirusShare_Android_20140324/Malware/VirusShare_390a87a04a801d550529141df113c88a.apk
/share/seal/joshug4/VirusShare_Android_20140324/Malware/VirusShare_0054505d3d2eb2d2ec3f1a301d0c9c70.apk
/share/seal/joshug4/VirusShare_Android_20140324/Malware/VirusShare_20b0a2319cf4c8343b346fc151c0875d.apk
/share/seal/hammadm/androZoo/gplay_pure_apps/021AA218E2BF48FA4E7E1C4396770E36B49E0AE7CA055D212C4B6FCE72CA4BCB.apk
/share/seal/joshug4/VirusShare_Android_20140324/Malware/VirusShare_7471d5440a0dab51b1f351e3eaec8a95.apk
/share/seal/hammadm/androZoo/gplay_pure_apps/01DC0726FEB864CB744FFE4FA50737A202411EE1B66C31C2D168DF5D60A299EF.apk
/share/seal/joshug4/VirusShare_Android_20140324/Malware/VirusShare_4bff01361a6cadc501d6e787d349d4db.apk
/share/seal/hammadm/androZoo/gplay_pure_apps/00B65491823A389617916934F51C64B98403E3065C3073B8EF70B090ABF1A275.apk
/share/seal/hammadm/androZoo/gplay_pure_apps/01580B01124E1AFEF637F9FBD46C79ED0F55682AC35BDC71D76616B5D6D93D0C.apk
/share/seal/hammadm/androZoo/gplay_pure_apps/00BE6AAAEE4BF2E8F75C40BFEFAA16E254C6A8BCB81267C865276E1C4906AB27.apk
/share/seal/joshug4/VirusShare_Android_20140324/Malware/VirusShare_aab4ca972f5f4e0b4fb0428f25f25caf.apk
/share/seal/hammadm/androZoo/gplay_pure_apps/000D7F2218B123D66FE9AB77FCADA5EF282A6C5F855DB9B4A53947B2A8CE63FA.apk
/share/seal/hammadm/androZoo/gplay_pure_apps/000B8A4EF6C9B4FC40D3DD4E4FDFD2C7E4E40E41F32EA6ADE5369BE48B9C6650.apk
/share/seal/hammadm/androZoo/gplay_pure_apps/00ECF28AEA3D4415EF5ABF9EBF07927F3EB0F3999AC4284C128C86EB85EC39A0.apk
/share/seal/hammadm/androZoo/gplay_pure_apps/00597CD39F7D82D61B10DBA3B627DDC6883B3DC74E0251A1200C19C414787DB2.apk
/share/seal/joshug4/VirusShare_Android_20140324/Malware/VirusShare_a278ed6136fbebb103ea2e3cd507be39.apk
/share/seal/hammadm/androZoo/gplay_pure_apps/009ACD37D048D6A11E24726F43F58BE4DD8839D8B46B42E0FD2EEE9E4166F283.apk
/share/seal/hammadm/androZoo/gplay_pure_apps/0105AB0DB2662BB18F704C5BF8D3FB511D275CD86D7D690C5D2439A138192CC7.apk
/share/seal/hammadm/androZoo/gplay_pure_apps/00DAD59DB3447B0DEE33604014029127ADCDE41E003902E295DBD260D3CE6E6F.apk
/share/seal/hammadm/androZoo/gplay_pure_apps/017E89D4BFC8526B370A18B3ED127371F8134E0B520067A288801D8DDDBD767D.apk
/share/seal/hammadm/androZoo/gplay_pure_apps/01F1A6A3A4F24291FBFDF97534BD6811498B02E3B1254BF6140090689B0DF0BB.apk
/share/seal/joshug4/VirusShare_Android_20140324/Malware/VirusShare_45370f507830d7669a2b7ea00804138a.apk
/share/seal/hammadm/androZoo/gplay_pure_apps/01AECECAD800F35348804A79951017DAA373758ED25AD44F118AC7E62F8552B4.apk
