./Train/
├── Zsone
│   ├── c6e0d09385ee631b4245a1dd9c2e74c4772c026b.apk
│   ├── b7f43489a4e96af87028de335ff2d10651b253c8.apk
│   ├── ad4492b9d4ec5885e6c43618a7fb69b0b93b0851.apk
│   ├── 9458cfb51c90130938abcef7173c3f6d44a02720.apk
│   ├── 89225d8c8dcc4c81789c3958e07a51e22fc94af5.apk
│   └── 46454396937f389cf2e438b7047a27350b9f019e.apk
├── zHash
│   ├── e8e2e280b9f01548653e5e7d80b97b0662827276.apk
│   ├── d0e451e5a3c65454ff045c5b20000890fb070457.apk
│   ├── 35969ef00dc29bf7d8d3a5b9c436c087985d36b9.apk
│   ├── 35338a58e68de0d835d7cb49db82215ca5ebbbda.apk
│   ├── 180938e955acc7c546fc758bf88cd93a3c3e2473.apk
│   └── 17797d0a81ce53902ec0166e009012b94e6e914d.apk
├── YZHC
│   ├── fb35f6545d5a9afe39bbf18645e3fcb55e81ac25.apk
│   ├── ec14d5198843a7bc99e42a8cfb4bcf3781e617e0.apk
│   ├── e7e70782b094620e2bc268e55499e4f4fdc7a73a.apk
│   ├── cd5a4113bae2bd24e056710051991fe7ca7d310f.apk
│   ├── c20d53c5b40d94e571a6cfb83775cbbbd1f73565.apk
│   ├── b4dcd3de2575d52d052a03b9ce49fcd74e5657f2.apk
│   ├── acfae1cd75a4d4e9e6832b8e19efac886f3d9f76.apk
│   ├── aa9216c96ab29477966d0ff83b0326241f733734.apk
│   ├── a6f54854e82c4d89f426c7d3c47cab09051e6c10.apk
│   ├── a368c8911ee6e8f9795cb8650fb5750bcd247337.apk
│   └── a0f141c4464dbe0c949945b0d4bca7117f032b9f.apk
├── Tapsnake
│   └── 890712525a30ac91ae42306a0a2a977d14b69d2e.apk
├── SndApps
│   ├── e492db04c506dae0383b45d3997daab4d9114369.apk
│   ├── d78f3bcf582b0db812ca3e94526455dc0c369fc5.apk
│   ├── d64419d569a336f05d0eb799615097870934c42a.apk
│   ├── c22ab450ae4ea678c4e8699ca0a83b4344e5ba3a.apk
│   └── b1675db6fbb245478bc14041cfcb48b0086071fb.apk
├── RogueSPPush
│   ├── ff76964c00f1de6d03edca63ca1ff6a8af0d6a53.apk
│   ├── e9364c8bd94c5dfc36524a60de80d9b9850bd583.apk
│   ├── cbd8c7628100c1bdec3f99d6b315171cf51f0029.apk
│   ├── a0b2c608addd28bfc0c384b4ba74c5a1eb2c729f.apk
│   └── 005165973a9b1859c39ca753f8df8d436f73de66.apk
├── RogueLemon
│   └── 18ea5584ffb185baf2bb5a87324ae46f7e40ac33.apk
├── Plankton
│   ├── f60e8275684f5d3cdfe6bc1cedfc337da56e0c0c.apk
│   ├── e8e171e053c83e628041c7d57059e040da13fa0e.apk
│   ├── add9e0c3d0b266c2c8839683e5282a6a9d23c337.apk
│   ├── aa2218213aa8fbdb9b502e2ce03bbaf8cb494b30.apk
│   ├── a423d119f46cbaa5a80bba50df0b0c5f0afb68cf.apk
│   └── 9797079492eb16667cadc4f1b17ca9b0fbe4a967.apk
├── Pjapps
│   ├── f7ce49349f79cf3bee0af2dbea25521ecb89a3b3.apk
│   ├── f78c75dd78accb8afa62109563451c4375172507.apk
│   ├── f1f8c997d77a6cf521a5f3adb9771d5c625f35cf.apk
│   ├── f1c0fe98d3c569ceedf77e9b509b9f8c7ea1969f.apk
│   ├── f051eeab57e42d569d298ad076c9fb47610e201e.apk
│   ├── e84eb4d521c858f088a798004925c6a19f579596.apk
│   ├── e556761afb96ce447ec964eb945cec733c4413c2.apk
│   ├── e2e24c5767f29dbb1c8daa41e1975a975d2ea4e4.apk
│   ├── e0399fdd481992bc049b6e9d765da7f007f89875.apk
│   ├── deda50965ca4c389dfad6b709bd4f0d9c5a9c5f7.apk
│   ├── dd830e1a37a73816f138cb7dca076224f39e2ee6.apk
│   ├── dc0955f5d3dac3758c468e97e5a656bb2c9c0467.apk
│   ├── da58fdfc0042315ab3393904ec602c6115d240a5.apk
│   ├── d04f161a5fde3348008f0aec9770647869570fc6.apk
│   ├── cc41c23be6baa51a2d555f397b9ca9144939885f.apk
│   ├── cbc3e67ad8138febc4e4a6bf6c4c792f8c3db28e.apk
│   ├── c0254995b5fdaf6394771b69af67c89d85183823.apk
│   ├── bd3abae103a788ef15283df01cd2b2f068113e60.apk
│   ├── b2e9ec9308af1dc4845d6f768ecb031c899c718b.apk
│   ├── a7f33bd0441b5151f73fc7f1b30fbf35a9be76e0.apk
│   ├── a7e418c5f7ef2996781bcdcf638a0bd9b9ed3175.apk
│   ├── a7db6728db3b8b793ca6513275bce2304a58090c.apk
│   ├── 95111f6a0c0955d51ad209a0c7465b6ff7a8af84.apk
│   ├── 65567a9b079f513916eb9da07131c07fa103985d.apk
│   ├── 4096c6fef844652fdb8e68ba9455d1b86e4509ce.apk
│   ├── 3609ff6a7b476b73f6cc3e0e33cf845c01e321d2.apk
│   ├── 29868b672787fda1f49c557597496a585a55f480.apk
│   ├── 00983aad12700be0a440296c6173b18a829e9369.apk
│   └── 001717460c5ba78085eee9b7ed58bec94759e4c8.apk
├── NickySpy
│   └── 63e642f0d859e096342321c9e03baca7cd1210fa.apk
├── KMin
│   ├── ffb0ed16f241af3f88ced0e91ad47144fb273de7.apk
│   ├── fa23c84bab755544e45ef6dc7885caa4ebcc1420.apk
│   ├── f37b267ba5bd41367c9a92905f38bd45612f8dcf.apk
│   ├── f0d0673bd96670154fbb91562e6d513990629863.apk
│   ├── ecf455ca72b8edfd5a831042c552005f2c6dbbdd.apk
│   ├── ea70419a0a06e4b8ef50ec52ba5fd9f1e7883211.apk
│   ├── e5c82f68344913dfe3a04a9cd71b1c5a3aae4d3f.apk
│   ├── da74a8ec8bef375856dca74fdcd1dcfb659a73ef.apk
│   ├── d9ef2b757f07b53fe9591e2c1e096ba6ba3da2db.apk
│   ├── c9718819144407c3651138383225b936495d5587.apk
│   ├── c7b74449fdf34430ce6fb208ac2495a9229eb8e9.apk
│   ├── c52db21b47ebe85d5512f55eb61bd4cbed51a11e.apk
│   ├── bf0e3235ca3ba43f45307763e325b3a2de4ac346.apk
│   ├── bd6e700ae19df274c15046764dcb7320db6ded7c.apk
│   ├── b9d2011a21e81061e667d7042accf69080183de9.apk
│   ├── b94da79940fbe03a62a2e8c15224eed822c257b1.apk
│   ├── b8904c7845b9764b4eea4f9a4518217cd6672e7d.apk
│   ├── b67a8ae0b3dd1ca4bd16d7140c75c15a3aec739e.apk
│   ├── b4535d42f1c83f63c4b23be5313e5fc0edf70fbb.apk
│   ├── b07b50c6f907493d76135b8fc920c6fd5f64f134.apk
│   ├── a9b65730a22fb6b78446d9afe1374d087bbf3266.apk
│   ├── a75e1e97250cf6b3646e34ed1cf0f1df66fbeabc.apk
│   ├── 05499696e53ebe21748ad8f577ee5cd6f8c32b0f.apk
│   ├── 02805652a3b7e87df02fb63372946a17ebd09794.apk
│   ├── 022921cc689e39c50e1e14341e51864c1153c06c.apk
│   └── 02122225a6e08c6f33cfcf39563b3df68cc20926.apk
├── jSMSHider
│   ├── fc16aba5d573312489911294aaf7cf9b439bbdc9.apk
│   ├── e4ef6aaedee486c7dc516075a82aab7686e2dd6c.apk
│   ├── d30054d63104c30cb797769bcf653926c15a5e18.apk
│   ├── cfbbd1d105303385a9de03ea82291fc49c1d82cc.apk
│   ├── c23ace40470360ed76a5c392677ca12ed945e47e.apk
│   ├── b78209c5da4eb84b6afccdb4a6690dd684812bbd.apk
│   ├── 988769f06f927f554d76a52767c80e9f7c9b2158.apk
│   └── 393289d9ab54e0cc53d067fbe02baca199428c70.apk
├── HippoSMS
│   ├── bd7e85f5a0c39a9aeecc05dbc99a9e5c52150ba6.apk
│   └── 619389e71656f3198ede0b249c45455898d60483.apk
├── GPSSMSSpy
│   ├── af727f5e23e69bfe2321f5d556c63f741dae8283.apk
│   ├── 94b56252ff610126135c568b1cc7b92405b9e608.apk
│   └── 5900250af412b7147764706847cf1dbc54cd6e0e.apk
├── Gone60
│   ├── f23f192716423c67bcd2c488dd2c3d4ac46fae8b.apk
│   ├── e54bbd6754cb23075421daf3021576f5830f8ada.apk
│   ├── db39b744a7b5539063ef79aff60dbed359831026.apk
│   ├── a949cd6dc9b3eb02981155e5d569c9c987b48cde.apk
│   └── a03e8db7dfba2c2ca62b92080c3d7ed26a87d8b2.apk
├── GoldDream
│   ├── fe2a9cd60d335a249daf0cd2a711d2328b989e8e.apk
│   ├── f636d4c61555222edb9e51b0503d5f9740781ab1.apk
│   ├── f327b2ba718626c41e55f97274107638189f2a95.apk
│   ├── ecd91723a885c36d6c03ef4cbeb2b8b0c8177b6f.apk
│   ├── eab88269c6d757657a712b50e9384052beb49938.apk
│   ├── d3ed2ed8b40a9786c278d5d88d9491a31403c296.apk
│   ├── d17f928605cdb6e47dba6ba4de29a82b47793a08.apk
│   ├── ccb0af1f05210396438f7e1abf37d40784e179e1.apk
│   ├── ca3c511854451c77958ef3b9feeb9f77b5bc80d6.apk
│   ├── c9b250247bf6f6fd0dfde5368b06ac61794e7a48.apk
│   ├── c9305cc8e1d2908708a49e8d9b932c2fdb952106.apk
│   ├── c25b15339b07530e5906539b0e116ddbc3f1589f.apk
│   ├── bfed80326ddc2cefef92d8bed23ba14c23a44e75.apk
│   ├── bf9c8c15a4a6b71d1d9dc480d8949c1954e0910b.apk
│   ├── bf3166e1388872f7f19ef2df9ae3960806a87d89.apk
│   ├── b5c59a6db87300c6e22603ca32695261890369d0.apk
│   ├── aca8b04659e909d9bb2e35c6baba768d8fdad3d0.apk
│   ├── a8096d4bfe1bbfcf7ab7a2efe73979e8ee63a3d7.apk
│   ├── 9601c3e2dacfeb11699c771eb93af5d4ab8ac274.apk
│   ├── 88128f4c6edbb5a415dbc3510191e5b8b1ad2416.apk
│   ├── 8309269f3f2cba4324346e48bf7474881090617d.apk
│   ├── 7560eaf83f211bb68472b437fc447ceab9679947.apk
│   ├── 1034b746a26e236b9a623a5cebfb67dde52a1d8a.apk
│   └── 08033b1e70ba72dfc4784b0a4e1c35aed5e62ee4.apk
├── GingerMaster
│   ├── d1643fb08bbb8bf5759c73cdb4ea98800700950c.apk
│   └── 4e36ac0dfe0a3cee8fa296d7180e1dba4ab4c718.apk
├── Geinimi
│   ├── fcd71343eed2c5471870af8153eb4176b6893b73.apk
│   ├── f3736147f7d46c5d96f8ae9f89bfd1f694bb871a.apk
│   ├── efcbfef99eb39b87fc08a54fe0116937effb642c.apk
│   ├── ee8ecd15b11a7cae09cf01c7ce7d622e77e7c8a1.apk
│   ├── de538dc6be84effaafa8512c1ae361e8613ffeee.apk
│   ├── dcc0f4c79272682fdc126b6d34ecf272b1f188b6.apk
│   ├── dca7d4258c19233e8468ba33e654b11abd9a66a4.apk
│   ├── d81182ce46c8c394d46969c9f113cbd1f542af2d.apk
│   ├── c15d08ebedbd4a0e7582a63dea8ee8ec620fd266.apk
│   ├── be3d613fb297aaa4b25e468f45cfc671fba67841.apk
│   ├── bdd581d2d57ad71b0bf6401e76c8120cd5dc0173.apk
│   ├── bd7b1c30019219f8c5516976df9429f8ab7e59e8.apk
│   ├── bc63590e6bff6ad988d151c4717078d7cde3891a.apk
│   ├── bc3790cdc8ae0ee7da7d6e3fd397d2a720e00e67.apk
│   ├── ba63270f2ba3dfbafab545233a46274dacddacf5.apk
│   ├── b9d992b88ef1a4a75362f8f5d069716ea7a3321e.apk
│   ├── b9891ab782cf643c81f0f1c130ea119384dbefe1.apk
│   ├── b910e54de31485e25a5a63fda6cae632125db615.apk
│   ├── b06092a95c915af33dd8c62d2238a7647341cf99.apk
│   ├── a79dac6de4fa88edfa22eaf7abbfa2cf9c54459e.apk
│   ├── a0e17f6015a0865782ac67dad178e0b4e9847f3e.apk
│   ├── 825146fcd1da9271ae358fe5b3cd4df88acd8e14.apk
│   ├── 788a43ea0f1c2f87d1a1422161983d834cab1db8.apk
│   ├── 691c56698c1bbaada0de560dfe582a612702c8ae.apk
│   ├── 6323c02d0f19a5de17798beaedae9720db889849.apk
│   ├── 63215358a684e5dc7ab0483fbb8a9b8bd27e69f6.apk
│   ├── 557a34c7a4ac70efcccb123b66a6af7a5ec1f34f.apk
│   ├── 44166a49f587baba1240bee8136a8799fcfb7fad.apk
│   ├── 426f501c28e6c24d755d71c07561ebf7f1aba5fc.apk
│   ├── 2442bca2f23e997f94bc2a26ec05da012fb31785.apk
│   ├── 243419ce2339943e5e4c7fe445454983020c03b2.apk
│   ├── 2315239af9c0041d876ace7b600f278ffe4f3b64.apk
│   ├── 1353bd14e91a53fa1ee54cd51c1db6918eb9f851.apk
│   ├── 1317d996682f4ae4cce60d90c43fe3e674f60c22.apk
│   └── 047043d752265fce625d22113e0b70dfb5e88477.apk
├── FakePlayer
│   ├── ad11db20a9070361cdf01cbfcc7fc43f97c1f669.apk
│   ├── 24db6f496e87f038b48867808c51c830a6264517.apk
│   └── 17144b0e95a07ffd5bd7c8e3bf95004fe5fe2305.apk
├── DroidKungFuSapp
│   ├── f2b7ab8bbdc9cf07417cea4752e4b531c5d4b566.apk
│   └── b93268eee1d56f17bb23186000962e4971a76456.apk
├── DroidKungFu4
│   ├── fd53408d01db8af7de83305b3c91726f372d5fd0.apk
│   ├── faa6c540f3c7e9ebd5b3dbbcfa248591721a3412.apk
│   ├── f8f8ecede3328f4e350982e606005d032cfd0ca7.apk
│   ├── f7833c2433e7c117e8baf5fe5d6c2bbf213a0157.apk
│   ├── f261693eb0471f4b36a4ec61a3542bef5f692763.apk
│   ├── f0b18bc38eba11a187f38832eadee3f45665ddc0.apk
│   ├── ef622dd1ec88911dc39fa8bca0bcedec76d51c6d.apk
│   ├── ef50042e7a5e4f3b8bf2d04d5d01b419f46a5d92.apk
│   ├── e78d081a5a537cb2163b29a5ca53caef19fd2f20.apk
│   ├── e3914c84ccc130d18bdfc1eb65c200ef0511a4cd.apk
│   ├── e1c2188a69727bf4ec4a5d72319cfe87428c7f35.apk
│   ├── e0c743418c2e3cfc1ce8ead748124480f6382d33.apk
│   ├── cd776cd0d9e7a248a46ad3072832a9c1226d4ba4.apk
│   ├── cd03a97c75069c8490753aa2aeac83caed96d4f2.apk
│   ├── cb33ed947f7a3fbb5f983ea93acf4503e31a7929.apk
│   ├── ca43d5fad77e64e243da8fb9e816f23c5c4a2eb4.apk
│   ├── ca3c18fa9e7d402d57a3f2138b1d68754de65c86.apk
│   ├── c7338e77b147d30ad3548aa222c416df6af244bf.apk
│   ├── c6800fa0310ea3546f39b3d0555d9f269122c212.apk
│   ├── c24d714f5b7f851438456d8486259cf9d84e1d2d.apk
│   ├── c098f5ddf7e5b5e4338f6fadc99307b3b45e7f87.apk
│   ├── c00ef6839d831c0bfbb4a05818803fe864d9968a.apk
│   ├── c00e464bd4b7c43609667c9d046508045bba0a4e.apk
│   ├── bd6e08b2165160c975d095d1147a293f151bcedd.apk
│   ├── bd249c0843df2f8acfe7615feba505ead30e5bbc.apk
│   ├── bc93b7ea51aca7386974b3742108b76184fba121.apk
│   ├── bbecfadcdc8ec39080fd374169269fffbbbba32b.apk
│   ├── b9e113d27da9d52ad52a4655cd1c6e606d179804.apk
│   ├── b8f5c781f277ca5e2c7bc45e04b64b17a43a93cc.apk
│   ├── b8b57c9c45132c7acab14cab2c4aab8d604691a1.apk
│   ├── b85954f043b6bafe63c140b79b4274047c2a6200.apk
│   ├── b765b9a9ad84c69857c42c206e775bae695cde9a.apk
│   ├── b5e62f1d6ccf19c5748511e84d424ff298c3a87f.apk
│   ├── a6803c0605b31d121c4214cfe468ab4e2e3b3100.apk
│   ├── a5f568fad02382bf1d5cad9fb094cd9a577d8d9b.apk
│   ├── a3d4a427d7dea00e688ed0fbb3235378b7d08710.apk
│   ├── a13cc291f4464853e7453ae840124ae604d5d3f1.apk
│   ├── 9965756d5f8e6e66664403fcd408e83746c41934.apk
│   ├── 81401b46631e40dff14ca0b84080dfc3fa79e71a.apk
│   ├── 787684a5c11048420f23021f27ea1eb9d59e6160.apk
│   ├── 68392ef467a62903d0191570d714a8bad1682bf9.apk
│   ├── 557808c79a19305176f4385c7e0570ff5cdee0a6.apk
│   ├── 4510995da9150d89c71a6a6e1e2a647def1f4b4b.apk
│   ├── 43655291f92ae7134ef2cb3152a60d78135b1674.apk
│   ├── 317396eff7f54067185c4f249041e16f27578010.apk
│   ├── 28094e50c02baea23b3511b8cc07259a07484afc.apk
│   ├── 1230177b243a18aa614d016a935ebe8a85bf204d.apk
│   └── 01555033f037f7decc7fbfe968ae8522ea25fb45.apk
├── DroidKungFu3
│   ├── fd80ddd0a15a6079b29e5012ebe99fca7ce7d44b.apk
│   ├── fd785b8d6f2415950339241e9bd97f58881b8bb7.apk
│   ├── fc4cc9a40430b87e2b257e0f65c231e96d084901.apk
│   ├── f9d4eba8542f59b2690f2fe00e5044985d66db3e.apk
│   ├── f6a47a624641d40c9272538072ee7618b2395d84.apk
│   ├── f65114c2a2e776f88864801036ca96f332ccaf65.apk
│   ├── f61e91e26b4bbafaab5ac4759a0685f89a778196.apk
│   ├── f5c1a86b016f46ddcfbce31f5886c18404da8a30.apk
│   ├── f372e800dfce9f077fc7db296906e019a5aa8d69.apk
│   ├── f2e6fbfb960659f793dd91811f9b15b568f40f43.apk
│   ├── f1e4a265c516b104d4e2340483fca24d60be4c08.apk
│   ├── f0e35589e0d5a2c92d9aec87987d9479f7dd321f.apk
│   ├── ef658ddcaa20cf3ea196e9b1148988e64d8aa75e.apk
│   ├── ee52a9d09cefa1206972294d566e18493f0fe618.apk
│   ├── edebac03c3cb29de34f94db0f614e2e7fd6da516.apk
│   ├── edad4c506ac44664908f46111014b6c090a9e259.apk
│   ├── ed8ea642025a57213333bc4acdc1f83589de0ecc.apk
│   ├── ed7bc7e12c4a8b56a3b8589a5d4564e726f27b14.apk
│   ├── eb8feaf09017169e5e182add3f9b095a43b63439.apk
│   ├── eb8a706c97aa73d46cbca2875e7f35021d84d763.apk
│   ├── e95db7888465525ba1d864dfddd9fa5e779d9048.apk
│   ├── e7185137929a0cca9dab752564ab47a3c99bb371.apk
│   ├── e63b1b5da3945f39608714fe2291eb42200f6d99.apk
│   ├── e585b2e268af2f68f969da956637344ea54c40de.apk
│   ├── e3f0de8ad898f0b5a7c9d327ffc266635b8af32b.apk
│   ├── e3dafd9d57ee780ac1ad841f3d77480a5ac84ae9.apk
│   ├── e3bc81c89b09b7845efe44ef7e5b0fdb34bc3d63.apk
│   ├── e26903be43d02aad00c9ce272f2d2604cb6792a3.apk
│   ├── e2415c9b5e62d3fdf0d6419edf0d1002637b3bd0.apk
│   ├── e0ff2e3c2717661a13260a7f4d396b3a9d6f076c.apk
│   ├── de7e5077e31faf8ad408a1c98e6d4d62e32cfc8b.apk
│   ├── de4ca72f1dc001c37c29235cd47f5c62ceadd28f.apk
│   ├── dbe3ebaf0d677a79d220a013d47f9f2c20f24993.apk
│   ├── db2eefaa78778eb1ef54e2eeca0910766a07d104.apk
│   ├── da909d284dcefcd2b83db2367e36a5f960dc76aa.apk
│   ├── da1c0e0bf21bddad8a1dfe97c42889ee16a781d7.apk
│   ├── d9b2856e0b141682e501b7f7b75d391f376ab5dc.apk
│   ├── d99165d50a17d5678b13e0e7f70605f9fd4b7e9a.apk
│   ├── d8073e6558515dac8e467a3c1f39b69dd07aacdb.apk
│   ├── d7f03375c914977235462e7247e6925003154d5f.apk
│   ├── d77eae7e84248fa0f1e416162d18269f3b899580.apk
│   ├── d4cd94c3a9befed1e040cbd0a4f2b9a62915332f.apk
│   ├── d43c079e3966d546d788a276cb41a3693a22e73f.apk
│   ├── d2ed8943147e7242052a6a660c1681d656ac73dd.apk
│   ├── d259cb08d4789508fa214b3fc5b02450cd0c2ddd.apk
│   ├── d2493329eb7e12cc4fbe2b5a1846fb78a8602dea.apk
│   ├── d19be71348f28529b64d366e04c076b43314b26e.apk
│   ├── cfc207deb0fbc0f9dbf091b52140fe32e3b0f497.apk
│   ├── cfb0b16a09da0b190deb5627853cc19110d5a147.apk
│   ├── cd8acce04e719f8e49074486e157277720cd865b.apk
│   ├── cc2004559472d6d6dbc80d24616f4a49010b2438.apk
│   ├── cbeb08731b9aee254251e750bd5324254fea3a2c.apk
│   ├── c93250119952bbcb1cba5d82ccab0e46419b9feb.apk
│   ├── c9308df0b222fc89128a2b0b7f972c5c24c32b80.apk
│   ├── c91b5452530cce21f1fedf711b8714ac00aca581.apk
│   ├── c90a026b8b31ca1e6ab7157b65809fc0c301523a.apk
│   ├── c8cb116260fcf639d5f3960aa5ae6adc2bd87271.apk
│   ├── c86d267f647ed9d07994ac2e86617abd8d3f6366.apk
│   ├── c7d42cf28333da887307d26aab209e74c5571d7d.apk
│   ├── c7d05f5d045ca4e7d7da7dd576093570ef364ee8.apk
│   ├── c73377c65245f2c872227de510366461a4584b1f.apk
│   ├── c6530612bdaac63c02cfbbfb4f9c7dedc83ab1e4.apk
│   ├── c63ad9901480e972f4052f325499b7db4e0be424.apk
│   ├── c45e9f3e379e573a2ff9e61f5b98f07060d9f1b2.apk
│   ├── c440f360b45118497935b03328db46d8c8bb6cfc.apk
│   ├── c3d37de639c0909ad78cec8c52f63f04742fbe6b.apk
│   ├── c395e81cef9e5bafc145653c08f3be272f0b1ca6.apk
│   ├── c37c564042e85946ae5d3a45990e41628bae92ad.apk
│   ├── c34f9dea764c90d559290a630b2a67e104291a0a.apk
│   ├── c2b671f391876d2fa015c0c18df6566ca4112fa7.apk
│   ├── c01c9564c8da0c353adcd987195d1e2bd0a4262a.apk
│   ├── bf82d4fca7cf248a5cddf8fceaec2735438b09c4.apk
│   ├── bf67f73db260851f058ddd21c575f2b31e26f356.apk
│   ├── bc080ba29c56b05d8c0a858ca865296b7b140b34.apk
│   ├── bb7b3a02c52d8212f6abbbbf940ca253ac71340b.apk
│   ├── bb564e3ef4e7445e18e429f1acfab94d87955ce0.apk
│   ├── bafacc1f06ad41da933355a08e93df0463a18d94.apk
│   ├── ba92a5bbb79dace47a76455754865d8fab9ab2cc.apk
│   ├── ba14f2b2a2fae909470eeff71d3efe71e7558b72.apk
│   ├── b9a435dd0b3792e79b4a436161677c186914ab72.apk
│   ├── b8531b6ebbdbf10d11864b59ae0d4305089c674b.apk
│   ├── b77e28f4018dfb1e73e83a617db9f36a708ccfae.apk
│   ├── b6e8a2b5238ff2bc92917ffecb3eb22bbd1ca4cc.apk
│   ├── b6e84db273ea4521e57a8d10da14c0ccac93c6ea.apk
│   ├── b56f73b0a5e25fb8e4ac0f1c0470e563f96dda96.apk
│   ├── b1d5dbc7ac504aadccb47b5eb8f0f3f900a1fc36.apk
│   ├── afe01215aa167be32603b9b7e2b7742ed5b04c6f.apk
│   ├── af95facea976aff99ab46049f59a07698dfeb6f7.apk
│   ├── af539222e6c766388af7ce48aa08e1880e4ac369.apk
│   ├── acfdc62afce378f9f42100d9c2a4e1b0387815ab.apk
│   ├── accc73f2110dddb359734c21fed385640c5cea9e.apk
│   ├── ac3ea28d293ac8ca11983e1bf9ae41cc9fcca27a.apk
│   ├── abbc685877c46a7897a2a7a1676336980ad9d684.apk
│   ├── aa47978366918c0d25ff980a788d5c791d55f139.apk
│   ├── a9086c684d2e495a3691dd253921cd050dc9e820.apk
│   ├── a90475d3b28e2d38f5097a11f5dc58424258371f.apk
│   ├── a796f3e372125c66fa3d8ba7b85bb95a0255fdae.apk
│   ├── a59e0ab9e1fa52efa03c1a7319c6921b45316e80.apk
│   ├── a4b0e758e2f2c3da8359e410cbc8bf4c91bd6dab.apk
│   ├── a3e6c041180974a6cf9416291dd9913290f71a7b.apk
│   ├── a3a91e61b1b6614c7dc3fa5bb8121645f60b8021.apk
│   ├── a37330661b2638307b95ae984b0b8571055b2313.apk
│   ├── a311fe380aa4a9802148cb60a92582df0de0d198.apk
│   ├── a16aff87d99ddb86afb2d7835b31a297f5b1fcf4.apk
│   ├── a151366f488f890ce47c8ad3e3fd2707626a50da.apk
│   ├── 999773583e37de010ebf40756e2300f002a8f31c.apk
│   ├── 9949a6b5d2e63f72bf16686235a780e61ff86eb4.apk
│   ├── 9886e2dacd57ba427f4f2dc5c2e875512d9c1649.apk
│   ├── 9328e1b46f3a01af004fcd8b74b509ab81992b28.apk
│   ├── 92888228c556f94b8be3d8bf747a2427481f32d1.apk
│   ├── 925d63b1f67e1becd6f7235e358e0577585d1f8e.apk
│   ├── 900c6c327e33b655fb17a161e9e9b8b08a2d8fd4.apk
│   ├── 896905d1f7ad7aa0221f7aef719a37261c53bd9c.apk
│   ├── 873be3e41df89cd1441eab588b0f8ea75427f681.apk
│   ├── 826ff3d8621468a45d4e1f87873c6b7d4e957608.apk
│   ├── 79535d84bb8fccb7bbae01bf339f2000bd4e7fa4.apk
│   ├── 7820f21605a7b5904cf2fbdc06dd5b54a764ae80.apk
│   ├── 777e20b423286859c76091281790c66e19d1fe93.apk
│   ├── 77739f780661ac6857a5d7fd3011827a78d6281f.apk
│   ├── 771234ccf802d37b262e54b2c715eb2614e0aed3.apk
│   ├── 73589ea5a0266ae85dd97c3e1150de5d36f1d459.apk
│   ├── 71938a720f1a17bab0669c3b089aff8f4b3af1f5.apk
│   ├── 718b31f6ebd32ddf6f7f7378b0a92e2724e49f81.apk
│   ├── 71487f6e6fa3a4ab990cb28e07ae1a0ee8182ad6.apk
│   ├── 708ac57b06ad3ac699e6ac7b8b9178244d94e776.apk
│   ├── 707f94a0d9ecadc19b254cd93e69f792a8f97b18.apk
│   ├── 696287b89f9c01178db1adc00bca09d7f730b254.apk
│   ├── 67737605714217a1287c9ac04309e62e4afcca70.apk
│   ├── 6639f9197631cfc1220e1f3d450af7e62aebb499.apk
│   ├── 6443225c102328cb9ce5299ef34b10328a06aa3d.apk
│   ├── 640c4761f280f5c1fca5e1ec13adf5fa88f09d2f.apk
│   ├── 5940b02bf39693c90ce59144b226fc6dff53228a.apk
│   ├── 5791631af5c922a5d9f72721a1f0016d867a5dd3.apk
│   ├── 579016281805dcbb03abb5e70cc40a316ca02540.apk
│   ├── 5175312569352bfa929530c64b12a54a81d9b088.apk
│   ├── 4861223a5a82af9180db28d1e865422dadc778f5.apk
│   ├── 4473fa7c2e617d7da27563bbc47322689c9d0cd9.apk
│   ├── 44637a506466199d4707fd75b03194f13174ddb4.apk
│   ├── 399420f492787c166f50211b076361973c0d8350.apk
│   ├── 3854590e9c6bfb40005f18a101382c4a3ed03c02.apk
│   ├── 384445dc9bb8068133c96a60ae7e440329ebee76.apk
│   ├── 377091a1727a58359b5d834e62fbe8ffc30d4baf.apk
│   ├── 35521071473ee840770f4cc9eb6b6f17203d55e0.apk
│   ├── 3503130130cd226fc6ff27ea02636bf03c0c431a.apk
│   ├── 3219ead0bb43f7d2fd932c4fc79c91dba559d3e8.apk
│   ├── 319059f1faf9727d11fdcc032eb5e68f759476cd.apk
│   ├── 2867b64163407a4c8bad0a2775923bb4331b8f6a.apk
│   ├── 285407cd685b3309e3f66c675378e6ab8151e838.apk
│   ├── 267043ab471cf7a7d82dda6f16fa4505f719f187.apk
│   ├── 2319ac96ca24f76d03c0fa3dabb242db85bd1dfe.apk
│   ├── 1162b7cde5e0797701c8d1371e3bfb135410b6f8.apk
│   ├── 075734ea39e1063ef8671a5d6469e0f15847daf1.apk
│   ├── 0657a70a655dc439b4222c8161b1f5a9667e84e3.apk
│   ├── 03168dbe4239cb242c5217d4052995278077623e.apk
│   └── 012339544c49584aace4e99d6c9013d1c79e38dc.apk
├── DroidKungFu2
│   ├── fca50480d3853230d765e50d18b93da7a8daab2c.apk
│   ├── f7c5968bb95fc92e9eb229117c2dc094812d4942.apk
│   ├── f637779a861f0ace02d52133ce213dbed0e83842.apk
│   ├── f30c4058f1e6cb46f81d21b263cf35454638275a.apk
│   ├── ef3b26c804757509600b42e806eaf3b6aa8cfcdf.apk
│   ├── e8ef1619f68642014cf48358828aafbecb9193ae.apk
│   ├── e3b488c469a368628ffa825c99e1ceeafbdd4e62.apk
│   ├── dfa7849c185f129a0ce643caa8b61ed71fb3c3ff.apk
│   ├── d1bc2651fefe47da0467e09bfe2edc7220ab4146.apk
│   ├── bc180becbe4154e085321e8ebc86e89a03d6dfdc.apk
│   ├── b21f52062fd6805506edeb078e56812636ac4378.apk
│   ├── aead12ec6d451b9a27831c8bbdba0f1267f59105.apk
│   ├── ab75715fbdb881c0cac491b68e231df3719987c6.apk
│   ├── a54b9f0694cd61d4179f6603a41209dc51156855.apk
│   └── 7734626341799e6ec8c3db21722bb7e4502dca89.apk
├── DroidKungFu1
│   ├── dc8e3234b94ff0d9080d179a7ac8bcfebb5200e9.apk
│   ├── dbe9a747a9d11b209604fd2fe787ce160251fa8d.apk
│   ├── d6d9871054856f4765beb8ed8b82a364a98ff8e4.apk
│   ├── d06e24b9f5b74d969b3b0c165940ed30f3c53ea7.apk
│   ├── c848cdc9ec6152bc8ca49cc72989f7d2ce56965b.apk
│   ├── c43c0408d458cc772d454ccd1cc06a9a92920eb0.apk
│   ├── c1af80d2e0e82e89c85e3bb4cbffcaabcc67a79a.apk
│   ├── bf7bb0fbe82883258d73c50ed65adda679308df1.apk
│   ├── b120c6eabd6f66d18552912aef93458168d17bf0.apk
│   ├── aa279a5540f4592a2be8b3cfc456d068994cac4d.apk
│   ├── a9891c7ce57448492a064b363ba7e56e60f77c02.apk
│   ├── a80bdca60dee7d6e6284647eb6a62b045020da0c.apk
│   ├── a6f39574437c2de53ea881d589408753f2539e3c.apk
│   ├── 86679f68df83af9b2fa01ba34fe2de078323f6b2.apk
│   ├── 656988c0c696696824984728196be6426880609e.apk
│   ├── 28176bc34e54e087e90bbbaba0c846ec9182db17.apk
│   └── 20595020c2033e4f7221b08e4ed6934f59a0d778.apk
├── DroidDreamLight
│   ├── f55439b7ac0b72959246823031cd2a125cdd6f5d.apk
│   ├── f0fcc17f26d3a343d27ae5dd640206eb6be8a88d.apk
│   ├── e9ec77452609049dc1b2480641ef48a961089a6d.apk
│   ├── e6a5e6f3938b04e3e2801d6d36ac0a3d789aa218.apk
│   ├── de6295de35da1ab6b5b52b18001180008041af82.apk
│   ├── dd85081d4a9b74b2877f912931da3b78d03db3af.apk
│   ├── ce844c7846564850300aa14378537c6bff556a30.apk
│   ├── cd49c650889d7f06c4faf662218ff58e16d15ce4.apk
│   ├── c8fd90495b1bcaba78bc0ad962b6682290260061.apk
│   ├── c40e61e7368f91e275853086ed3f4e3ca423dea5.apk
│   ├── bd0cc3efbbc7c97cd3b4ed726c8134d1ff52f300.apk
│   ├── aef3879d788dc7eeb71255bf25da4b86d2330f2c.apk
│   ├── aea7ba821a3ab1d05eb3e49a989efbbf7d776c7b.apk
│   ├── a991eb18282e7fdd3be796d7788f09a3c507649c.apk
│   ├── a679b4be44bef1fbe035c52e052b661684bffa2d.apk
│   ├── 9814a618970030102e7050c1d470076f650e357a.apk
│   ├── 9321abaf319603ab22473c60b624405c3971f0fb.apk
│   ├── 912d426b2feff4f55b313bb3baaa0c59e93968c0.apk
│   ├── 7656cd2159882c165b28ad5ba9e523a34357cf6d.apk
│   ├── 4863b54d84dd40c1e371e95a99ef4f306fba501a.apk
│   ├── 38331a6364fba626d99d41de5cf87bcaabe3ab5c.apk
│   ├── 3777babf3e139c882162499ec987ab832c0014ce.apk
│   └── 22445b06ed3aa807a0db23e6bc7f41d16a1f9465.apk
├── DroidDream
│   ├── fed6ceb652999707a33584dd035b5ee40ddba6cf.apk
│   ├── fdf6509b4911485b3f4783a72fde5c27aa9548c7.apk
│   ├── ea09090859ef11ff566b2d82c2cde962f07eea8b.apk
│   ├── e77ba41715b7f1d1f6154764e448904ba10eaaca.apk
│   ├── dafb28e620871d70eee3d4bdb94ca7d37731bd48.apk
│   ├── d2fdaf2c293adb2977c8d3c7aa7152553021f949.apk
│   ├── c6b7ec91f6e237978552a478306fb6e01c9f15e9.apk
│   └── b349851d2a8ba476a0099c17714559f713aa2fdc.apk
├── CruseWin
│   └── 4147f7d801c4bc5241536886309d507c5124fe3b.apk
├── Bgserv
│   ├── eb32bc6a768db927af6555c000498c07f796b419.apk
│   ├── e9c841757db6816f978deb573fd8e8ed0fe6be3b.apk
│   ├── e8b1b6e3910bd79d6ac560a673d04aa6c31cb05f.apk
│   ├── bc2dedad0507a916604f86167a9fa306939e2080.apk
│   └── b14de36c493240f98cc610982b4ff72d9939907a.apk
├── BeanBot
│   ├── e8831cd2ec2e091cc3291821697851b1c65125d4.apk
│   ├── d4afaf56089d4560254df7202aef36c7e09e408e.apk
│   ├── a1fa9de17c36f00fbbdfffc9bfc3c858b9202f73.apk
│   └── 98057097b1810c2a08a4662d11da3f8fe1bc6ef0.apk
├── BaseBridge
│   ├── fdef4f92752421baa1b5d18dfa6ebbd6a71fb10c.apk
│   ├── faff29dd2f56c853a98f9db09902edfb8de90a52.apk
│   ├── fa9d92d1aad565c7ef24222bc9ea8de5c426decf.apk
│   ├── f9c23d5ac3e7f978558c1ad96297d9a19d2841fb.apk
│   ├── f906076084ef482f8e38552bd7999da1cd153eb7.apk
│   ├── f8c6d33e8dbd2172654bae104a484fcd80cf22ba.apk
│   ├── f8c3a32abf4ea4ea94ee5dc3c75801c90c6e1145.apk
│   ├── f199a13ac3d839aee134e1820c252ef37c634c27.apk
│   ├── f11c3f727c43b40610242d228e94489012c755ae.apk
│   ├── f1079462762cc7bec822e97a3f1bfcfd5fa313cd.apk
│   ├── edd0fb89c535187fe4e52ad8a01aa104a62a534c.apk
│   ├── eae147d49a3f690c0694c3c9ffe01cfb50c04842.apk
│   ├── e94ead92f5eebaedd9e2334a1920739f14ae2f13.apk
│   ├── e8eda209abbd27a39d6a9fdf12f125d762eb7e66.apk
│   ├── e854ebd42822b4d33f7409aadbe2f5e03dfdd066.apk
│   ├── e78032cf369f8182aafd1b195d8c9daf8e2b1721.apk
│   ├── e69ff0dc668d635e4e0b5d3f26579d7bd1a7847b.apk
│   ├── e5b2871ca3996201abed62e9eb78ec9e394d3aa7.apk
│   ├── e4da0ad857fb66d74296f16af8558046e064dbfb.apk
│   ├── e444a0bf8e965abacd99ac03af458f9f08e10d9f.apk
│   ├── e42b126a86b57029e11ef3d32ccc0acda98c2baf.apk
│   ├── e10622d98ef3964a8711f534215b37f145f53872.apk
│   ├── e0411b4157c9f2ed80c809ab27d3bb1b854d871b.apk
│   ├── df7746bf3b7120e4dc89b11badd0ce23f83380a4.apk
│   ├── df4c9f35a969bb5959521fbabef33bb3963b2e8a.apk
│   ├── dc93d24bf28fb8d3dea0d5a40f5b0641bb22851b.apk
│   ├── da146c489ae91fdda1dbcf2ad90d7d69d766fea4.apk
│   ├── d917ca7418e8c73af41e1bcd1b6672fea127ada3.apk
│   ├── cf5d1091b1fb87911054d10f1c1c17c3fa746d00.apk
│   ├── cddbc21265d9d8b0f6f007e8b8dbecabfcb185b7.apk
│   ├── c450961edf6afcefefbe705affc462669321cf12.apk
│   ├── c208283c522a6675221c42d289b71377d6961382.apk
│   ├── c0a74df6816864a66cdadfdd09114ee36f1622f7.apk
│   ├── c07ec5a74191cd16325742eff82334cfd49a45d4.apk
│   ├── bea3692585279f964d253b1ab29ebaffe393fa65.apk
│   ├── bc22d43ac7b4a19d632bdc163bfe88df65fdc9ec.apk
│   ├── b9774177e0b0b185dee0c1ead45c30e95c4c3bdc.apk
│   ├── b8c205be3ee561126ff2c5cb12b81f94dae06c25.apk
│   ├── b83856d854a0038ade9d15cfadd4454e7e8e8fe6.apk
│   ├── b771636cddcc1bb158d99a16817e7bc1cc9334ba.apk
│   ├── b457113c46b19dcec6ebb68efe24f1460237389d.apk
│   ├── b12df5427e2ccdd347e644a90833b01730dc1a51.apk
│   ├── afbc5da7c7b47126ef8a7bef6ff52e1899352ca1.apk
│   ├── ada4a2904ff07385689f53a460a475862713c3a9.apk
│   ├── ab1913c947dc769569d44c0427e496e77db906c5.apk
│   ├── aaca6e5df0a1b9b9dca1e637abce0b8b0310fc66.apk
│   ├── a930e8a2d582c31fecefa25787091aa98f6d8759.apk
│   ├── a734762cdff36899f78558d1fbc7b3bfff5988d4.apk
│   ├── 873778914f860d277af5f1bc31cae6c80f60251d.apk
│   ├── 8722876f6d1e939e279166af388a69af7b42447b.apk
│   ├── 82475d14df547f6daf29d42cfc861681911bc03a.apk
│   ├── 79902b2e49c55ae1ce42bd96bbaa918152bcb6ed.apk
│   ├── 74019e8bf30ef7cce7dbf34a2a3df5f8915a0b48.apk
│   ├── 708647bd3359e082d69303c71ee60cc005dab351.apk
│   ├── 66061b26219ed6591e0da91eb297d976f607db0e.apk
│   ├── 57861a916dcaab2cd325d3f41d66c88d4ccfeff1.apk
│   ├── 525021355c2042b23860e00c2c890200417e2207.apk
│   ├── 508353d18cb9f5544b1ed1cf7ef8a0b6a5552414.apk
│   ├── 40181a7facb6ccde8b685296baa526c4ccfd656d.apk
│   ├── 396888b036203ee436f860b664aec91f8b40afdc.apk
│   └── 067665e8ef6bddfede683ea698bbd4d279465b9f.apk
├── Asroot
│   ├── edbbc205e7033174919ba22b01617fd731960da2.apk
│   ├── edad14044d5e0b055ead541700052f3d4a25cd41.apk
│   ├── c4a8bb0a0f0a2ce4592656972b7043fc9b3a56d2.apk
│   └── b234dc00928261662f3df2ed46ed7eb44e359066.apk
├── AnserverBot
│   ├── ff05b8cf99a96a02752f775e131cede52688fa21.apk
│   ├── fb152aaff22b534949258a2b4c291bc79d6915aa.apk
│   ├── fa5f26e713b3994a87e0f51b8931737f2fb6df26.apk
│   ├── fa5b7a6189f41f8068cbe6b2cffb312cf80ca9c8.apk
│   ├── f9bb3fc540b5e45ea9346d267455e1487644e1dc.apk
│   ├── f98bf5c60349664e9b2bf0faed990d665eef7447.apk
│   ├── f91b228018bc6320c78aa9179d7e33e18d95fc80.apk
│   ├── f833caae96318dc2758965aef77a0cd01ecb7238.apk
│   ├── f7df67cb12647522e71520839ae604729c204cb3.apk
│   ├── f1dc8e25efaca878f8c7d3b13db5031b3eb9f049.apk
│   ├── ef140ab1ad04bd9e52c8c5f2fb6440f3a9ebe8ea.apk
│   ├── eeb7c53e5070db7f7c6a322aec2961da135af93e.apk
│   ├── ece7557e46ec81c12324d5914c557fbd9e192691.apk
│   ├── ecab27ca37ce26926536135b6423586c5f7e55fd.apk
│   ├── eb9c443bf67919de2a9869814e0a8f9add630a3c.apk
│   ├── eabfa101f1c7084216e63c51ac62bc43013bee3e.apk
│   ├── e7ef270795b75040c736b6d86dbbe26412a7d169.apk
│   ├── e43fdcf1f0fa074788e9e62ab110288bd57ab918.apk
│   ├── e430aee3af177668b8c51fe842ed9f30b90e851f.apk
│   ├── e3a0fb145468c8c0c345b90624d65aced87cbea7.apk
│   ├── e24a66105476944953ba0551cb9267ca80e4127b.apk
│   ├── dfb41f567320ceb1987ef47125f54a315937c585.apk
│   ├── df08e5a4c3875c57889f44192166ec58649f7b2a.apk
│   ├── de5bf0bb5165254e2ba13c0171dd34ead84fbbbd.apk
│   ├── dd28560df3f824c0643b5514f40c96f75d05cbbb.apk
│   ├── dc6a4aa8113af49317942c6414295d4c16329e52.apk
│   ├── dbdb1aff55741236f2f26f0424c570f2b4fa159a.apk
│   ├── da753a7780baabe4dee53b34c15c6465e3abe017.apk
│   ├── d9131873112459783caa1f4ef27fbde023ef0486.apk
│   ├── d803b6ccc3e0bba3f3b4fb1cfce3b80850576ad8.apk
│   ├── d7549a267243049921b7835d5d3d32aeeaa2ed95.apk
│   ├── d5abe22cf6053b03b800e63a4e43ff94ee558e50.apk
│   ├── d4165de28d03ab376f82ca965db90878b2600136.apk
│   ├── d36d299a66852339758e45a1d2164ca04290ab2c.apk
│   ├── d319d302a900c847cb1b48bf15afd4b769acd16d.apk
│   ├── d289df93caeb9ed46dad0c1cfb224b58ead4a79c.apk
│   ├── d2634f51e364738c372474587767c02353d49a1a.apk
│   ├── d08285c215c59f66ff33e02e15d28ee52ecb13a0.apk
│   ├── ce6896df6c5b3ed712839d893d7149746746d0e4.apk
│   ├── ce1d3ebfbe3e124b2889d15f8774cadc83d85458.apk
│   ├── cdd8f5bf0ab6becf447f48d5877068aa2a67192a.apk
│   ├── cccc01c9df470e0acc4c070c9c1df4897b0cce59.apk
│   ├── cb9a6989a1da64c055db92ce66dc92c1f44216b8.apk
│   ├── cb195c32140c401fc3537093a09c67707f31a89c.apk
│   ├── ca390cb2d8418e67a6c9d8d9a4395bbfdfa3a9f9.apk
│   ├── c62c1a9f91333afe8750ab03f2bed685af3c21eb.apk
│   ├── b85c887808bacf694f92f472f91b47c1fa79b04a.apk
│   ├── b81d2cefdd200a936962e8fd69a30ccac0483e10.apk
│   ├── b81ad752d1045415ca419f7ec8846c2beb5fee1c.apk
│   ├── b8095d1c75912c4217a8f22524ced24a57ad2568.apk
│   ├── b75794afc9fdd9cbea700e6df6cc5d33c294ef66.apk
│   ├── b47f9257effd4d314559496e564b2ffe02d66082.apk
│   ├── b0105adf6812604c76cda6cbeb0bafc756e1844a.apk
│   ├── afe151f00f0b8382c083265b00b0158dabaac503.apk
│   ├── afc13f6565caa7d1b482f73652c5df927b473bdc.apk
│   ├── aeb2cce43ecc189a7c5a0a3249dbace35e070fc6.apk
│   ├── ada73fbdf13c7659dcc6e2f50901261454a0d6c5.apk
│   ├── ac3532b9ad77f20a3bc1fa436bb953bb3d03456c.apk
│   ├── aa8cd901bd0bf62fefda2bffb6ba115b97fb8496.apk
│   ├── a9cfc802ac9d024e087843ba37093925b8d2ac39.apk
│   ├── a9c325c88bfc9eb090053e88da84e00f88f7bb15.apk
│   ├── a98cd8750568b4265e92071e37f063bcb5bd6281.apk
│   ├── a74deabb25a6bb2bc202914e204fd3d6b37f087a.apk
│   ├── a514d4079a1114195884e5468f8abc3d2d59ac4d.apk
│   ├── a413d2d5c7e5008b8f3082f59da55a4f4cd9c71f.apk
│   ├── 9432cff9e78a834d23269e6cd6d4f5766ee705d5.apk
│   ├── 9059a372c6e9a9863bd070c6ee54bdd906e3a566.apk
│   ├── 866b2b51c3e082906bbdcd2b14385b982bd2c733.apk
│   ├── 862f9ac752d7077ac30ab9f2c8333c283e1ea7ce.apk
│   ├── 8471d7a40b8162b4674fb85cdbf7fbe91565d5c5.apk
│   ├── 799d38ccceeaef0d7c283a092af7055d932b42c9.apk
│   ├── 7905508572539b3864bc6af5d24a129a0df3484c.apk
│   ├── 7804662a556ec5f7f2793f9ef53d4a75fc6aaa73.apk
│   ├── 753073a72bc14ee1590e8addd6cb6eeb0a0602f1.apk
│   ├── 750c7b43cf733c2de2210a8843f402f05bdccc2c.apk
│   ├── 748f889a0184b8e5700e3d210bc358e135c0ae9c.apk
│   ├── 739ae32d675b3f030a94da081978fa8f34971111.apk
│   ├── 722523b5a7b579ba8f0c51a10d93f068d88b61a5.apk
│   ├── 713e630da5c5feba6cd319b115211424acb48799.apk
│   ├── 711ff55e9d5ab5e2614326c0dbb98d6db38e20a6.apk
│   ├── 69589f74d0ca9604b775b32e4f96edc9ffc4efd1.apk
│   ├── 6778864561499804b6707762238c74d381ebcebb.apk
│   ├── 6020a609ec937acbe202f3f7f0f72ad2558602b5.apk
│   ├── 581cc75307fd40ec1db151c721fded8a160843a2.apk
│   ├── 53253de729ba65f332f90f79a1677cfcbbb71f13.apk
│   ├── 459c88871fd1a048198490ec2ece645681c9bfca.apk
│   ├── 30441d6f70304fdefb84d983a99a99a1007d25de.apk
│   ├── 26700b0638695958e8fd3887a54baba5c9c75214.apk
│   ├── 25651493931163c49220cf22f70cf9cd3d125bba.apk
│   ├── 23478d0b6085ec2ef99d72cdc31b8db2c9b74fbb.apk
│   ├── 13469906ab76205fbf3c04e016d20f31deb74c3b.apk
│   ├── 096427cfca06b10a3dd0d47284fc64fdd9e884eb.apk
│   ├── 0495a2b12fd7aa45a60f046e31f6d82210c864a6.apk
│   └── 0465b4b687651a24b7e230e7b00deca6576fc1d1.apk
└── ADRD
    ├── 9f83dab3edddf0cac9cc34844abaf1ccdbee4019.apk
    ├── 8a15729f0f7fcdb68782fe78429a714225e58610.apk
    ├── 7ded7bb7041acce78e85e811c0ac048338bdc2d9.apk
    ├── 744c0c7091630fc5a999277b95dc0b1cf3b68153.apk
    ├── 730fed46dc7f13691906f46111ee5e05aa1b854e.apk
    ├── 6a0bfabcc1cce2a5424313b34ca967fbc8f98bea.apk
    ├── 657d6567d102d4d2185a4d9a9874d460bfb052c6.apk
    ├── 4de0d8997949265a4b5647bb9f9d42926bd88191.apk
    ├── 32cd5dbef434b926ce34e89f0d185fe8d1b5fdfb.apk
    └── 09b143b430e836c513279c0209b7229a4d29a18c.apk

33 directories, 626 files

