5c9c011ff3812b4cf7885f70bc9baca2a9c5c312.apk
001717460c5ba78085eee9b7ed58bec94759e4c8.apk
7804662a556ec5f7f2793f9ef53d4a75fc6aaa73.apk
6323c02d0f19a5de17798beaedae9720db889849.apk
2acdf6234a9e71577f00d297751740ba7cffc556.apk
17797d0a81ce53902ec0166e009012b94e6e914d.apk
30441d6f70304fdefb84d983a99a99a1007d25de.apk
7734626341799e6ec8c3db21722bb7e4502dca89.apk
7656cd2159882c165b28ad5ba9e523a34357cf6d.apk
03cbf9dc29bcc358eecf9b78ce618a83af686513.apk
0fba36955687064f19668ff4a1b88917c80cfaa4.apk
067665e8ef6bddfede683ea698bbd4d279465b9f.apk
539b47540e124d099aebaede370b68bd0eccec49.apk
1b87a490c092a7632f7363c8c4003a2db67bac4e.apk
60e1e73e0e3d320d3168766e65caf7e3468ab06c.apk
581cc75307fd40ec1db151c721fded8a160843a2.apk
28176bc34e54e087e90bbbaba0c846ec9182db17.apk
005165973a9b1859c39ca753f8df8d436f73de66.apk
13e43b68ca580627780f3c7c45baa5aa938ae99d.apk
0d04c5b0078a809165ff9fa560907dc5d16b64a5.apk
7a7b52281a7999f3d3fd2ae3ec8d3d2926722402.apk
6df2e73e0863b8740f8ae40305581197f1a37aeb.apk
7905508572539b3864bc6af5d24a129a0df3484c.apk
79a615df34bc9dc098ac443a746d7a2e0099024c.apk
4a449207f15ba3f7b982d5ffbe49e17e4498dbc1.apk
3726cfddc691cb72e7ed6b059bf943ad9b4d1774.apk
095b4416b29b187eb1fbebb2f9d8ecfa688c4ad7.apk
1b2bf4f0edd14fc896976a711b47dff716bd1cf1.apk
27ef09f21167bdba71839ce370b59d0caa4b64ee.apk
357ea5ec9c90ae09e3c31c47d854b0eed2a33714.apk
67ab1b0be7f63f7402372beca297937a2e72cc0b.apk
508353d18cb9f5544b1ed1cf7ef8a0b6a5552414.apk
7069e63d9a63447f9bb8aaedb15e39dfca3aa76c.apk
0177c2775de43572eb37e5de2803ff57eb297a9f.apk
03c76b449271ad3025920b7d725d69b80d07638e.apk
7c3daf5b725225c76c42957d7830c8dc6cc74405.apk
771234ccf802d37b262e54b2c715eb2614e0aed3.apk
4de0d8997949265a4b5647bb9f9d42926bd88191.apk
44166a49f587baba1240bee8136a8799fcfb7fad.apk
4aaf5e3219108394874152cae6fdab77a95dc3da.apk
207fd9f3619ee825d38cf5e48efc3522e42a9c83.apk
3d79d12d1abcddf9b53ca04469488a84a91aabdc.apk
2cfa26bb22bbdc4e310728736328bde16a69d6b4.apk
0f2592644f77104f92fb5b487a86fb11ace6e747.apk
708647bd3359e082d69303c71ee60cc005dab351.apk
2d59ea978fba9daac1135091a9b24544708f2ec3.apk
1ecb39d2c99271e737061195854b442acce43802.apk
63c68e15b2d3e9bd28d8518b3dd70e0318d94602.apk
5b7146ef3177fa491d1720a7df46f3f6d40a2799.apk
147798e4306d06a6eea438ec994779677daf4c1c.apk
4b091e27910ab73c4f54e7938b766657d48d4468.apk
15a7c5b31c2fc87e85b5a91026f3b6df097e980d.apk
1e7203279f153c3282eeecadbf2a9b232bc4ffda.apk
0a0c064d6d331df8c76ba9c4a7cbae7d7e19385f.apk
2e8d51c6356f3ebc74ad51d6fbd86f04f098a90f.apk
132f70936801d48da0677dedb09ef526ff1403ee.apk
01f90d98274db28563e45fb3929fcf2d0e9a2380.apk
35b223e521abc1cb6b8043f95c2a133c11ed8be4.apk
4f4ee687c683e889f204b1a0c86878f198380513.apk
63215358a684e5dc7ab0483fbb8a9b8bd27e69f6.apk
0e63ba4bb6712456e8f9dd79bc0ebb2466b13ce2.apk
35c1ee05537c83c75de7f980cd4d0b25b06c2ebf.apk
273ddfcecc25837e4ae5b0534d1006a9c893d94f.apk
1cf4dec055d9d5f216cecf7bcbfc82986ece4f88.apk
64eeec473d2700bef5dcb6ccaa9baa75d2de5c80.apk
3b75baa549bc381ceda1b5220d65784db1795132.apk
38331a6364fba626d99d41de5cf87bcaabe3ab5c.apk
05dcdabde6cdfaa0a87f84abd858cb163adbd69a.apk
5d81e5ded988b406ac71578d5cf885600b72c23f.apk
3dc6f829a969f0970f5c47ee4247df8addb16b87.apk
0b6cac1d3b2408748afaf5dbe807f29ef4e0375b.apk
4d97042425ca899292c6419d82b070b595fce5b0.apk
19662cc6c1278fa7fc67d0a22750b31ef450dc65.apk
4edab972cc232a2525d6994760f0f71088707164.apk
164beb630cf99d13059d080bbc9c21c66badb9fe.apk
057f30568cf23fcdb633732c20ceb7464e15d397.apk
319059f1faf9727d11fdcc032eb5e68f759476cd.apk
73c1657ddf52cc82b57c2db80554c59927e7970a.apk
1162b7cde5e0797701c8d1371e3bfb135410b6f8.apk
7a100ed97837a21dbc3960b31cff5bc03916aa65.apk
75b6b469588cee4eaed0ee8cb8a9de4c56e40b89.apk
3d451f7093cd47ecf9e41317221569322b8acd20.apk
1d11a8609271c24bf0673f3d107e231bf96f9e0a.apk
4626899e1c247b9b6ad6b9ebb2ef67db41591563.apk
26e0ff6dc765de4eeaa4bb02370ffbbb6d29ea29.apk
4657b7592f855999f693f77d45a5298649ac2105.apk
2ed1d46cd4f3aaaa20f079dd56aa52ecb5edc974.apk
5b0bb093e0ec375e902ffeab074ee70df47fb896.apk
7833442a09bed272e6c177bf22b2c6995609a354.apk
6a5f31a1da2c0956fd49ea27ab45f777c75ad90c.apk
4ce9c7df993e0de0fb286cda6b81308931ef65d3.apk
26f9ab6a3ba047ad7294c682d99f3b437d274cfa.apk
67f8966ed4d60bc728d0c06cdd83fec7c4352f3c.apk
795ad35a965580bef844ffa61c0a561d6dba2452.apk
2d06a6a8d38d9deb70f1b1d4acf89b088271f865.apk
393289d9ab54e0cc53d067fbe02baca199428c70.apk
04f9de3ab72f836cb528256eaa8047217ec94876.apk
36aa35af57cf3d68447763e1ae6fac5883489efc.apk
23478d0b6085ec2ef99d72cdc31b8db2c9b74fbb.apk
03f9fc8769422f66c59922319bffad46d0ceea94.apk
01e066b6b43e30102d5046881c363a9f590a901b.apk
37fcc6c7d4163e6fb0e560f7ad02f0094c598413.apk
39b9c8b6914eaab34117095c503ddc18c7a2aea0.apk
328a6913dfa807ebfebe0e5d798abb2529cd6e2c.apk
2d773a9f8d506d72adc2d4545f01880925c75171.apk
7b4a2e82c0b61e2f260e60bbb2e5c16ea864ad46.apk
16f3333aa9444964148bb16462af5e73a9205670.apk
6443225c102328cb9ce5299ef34b10328a06aa3d.apk
3d7413a4266cfaef11c4f886b0b1e0d7bddda8f2.apk
68392ef467a62903d0191570d714a8bad1682bf9.apk
005a8f98adf8609df7d956558a538ab19bac3c1b.apk
764bdff985b515ca9207fe8f2fbcf41f7874b5d5.apk
748f889a0184b8e5700e3d210bc358e135c0ae9c.apk
2e3dbde6ab030e5754b4ec07bbe78f397defd988.apk
1dffd31460a705499254461b590a7d5628d60c1c.apk
3777babf3e139c882162499ec987ab832c0014ce.apk
5f505727ff12e9ef180ddff4d254bf22884d6316.apk
4c1775c28def41a221e5bf872c5e593de22bb9a6.apk
1a418baa883df994ea5f9012642c9170660b752b.apk
0274a66cd43a39151c39b6c940cf99b459344e3a.apk
10c8e28028b7ff046b7a84ec3eeb282ddc998d8a.apk
0495a2b12fd7aa45a60f046e31f6d82210c864a6.apk
799d38ccceeaef0d7c283a092af7055d932b42c9.apk
1fad7afd7ccae3c7f70b11a342e52d4bae2a2f7a.apk
33761c63814fd9fa530bb2e46f86a58b2615211f.apk
113d68bbaa7ab1f0abd9f9a5b772f03ea6721e14.apk
25651493931163c49220cf22f70cf9cd3d125bba.apk
67737605714217a1287c9ac04309e62e4afcca70.apk
6b457f50240d4f0b4f75c37a3138b172fe2527ff.apk
1eefb5d1be6d1dbb615f7b8bc8e5fa651fd17472.apk
663e8eb52c7b4a14e2873b1551748587018661b3.apk
1a05de16dca00616c1959a1e94ca9529330be2d8.apk
057694b62bfd6a488f3db80454bbd48bf84f68e7.apk
5791631af5c922a5d9f72721a1f0016d867a5dd3.apk
5cea3de233f4527b5eb582e17c6f2eb396f9bcf6.apk
579016281805dcbb03abb5e70cc40a316ca02540.apk
1fcb0e758828a49e440e2adc5690e0ea1b8b2db3.apk
4bf050f089a0d44d6865ff74b75cb7f1706fdcaa.apk
47af0a05c248146ff1b982d7826d36da6910fea7.apk
00b89bcb196a138f9f20a6853c41673a18a2575f.apk
722523b5a7b579ba8f0c51a10d93f068d88b61a5.apk
171d896e28bee546d5c6c735f27dd289fca95e9e.apk
263b770d83beed4ed2eeed5d86b833887e0a52eb.apk
2a3de2b348c02fdb96a11af33ff9fcb932a47b7d.apk
02805652a3b7e87df02fb63372946a17ebd09794.apk
3f729d0bb5a6524463d11265bac1b676cec6fade.apk
2f0b49388c382ea319a8eff7dfd5db82aacd0677.apk
043c690231c44de57fe05fff7cda5378b56ff0ad.apk
06d4fe28defbaad9253dfda48cc6c1cd4f1c71fb.apk
459c88871fd1a048198490ec2ece645681c9bfca.apk
2d3ba03c35884565bce714aa5a8ff2df2e89597b.apk
6e846ba7c5ed056c10ba2e663aca276670d2e82c.apk
0d094b0de7650c39591715db67a957326d83ea22.apk
3b27b91fdb24302c70da9164bacd5e95aebb3768.apk
0874540015f36d46973b684fcce14ec705b1b9e4.apk
35ad670f65a667b48a5db4f3d13e3050fe282f12.apk
43655291f92ae7134ef2cb3152a60d78135b1674.apk
0cb343e080e4a7d2083dbf3d20961ef8f39f0f46.apk
0e5838d74ded166c6ceb26b09ad575b6d546d669.apk
21de536ffd1d7ec041fc60a4dd1d5a4ff52d8bbc.apk
2319ac96ca24f76d03c0fa3dabb242db85bd1dfe.apk
77ba68c12fbdeff823f695c1c51a325356e6971e.apk
517dc7b67c852392491ce20baff70ada92496e6d.apk
4c9f885680124dbcb8d590704d0f8dff4602f909.apk
4147f7d801c4bc5241536886309d507c5124fe3b.apk
7820f21605a7b5904cf2fbdc06dd5b54a764ae80.apk
5c954c5e533d182d4d3442396ac417fa22a3e31a.apk
019c6d6aaf631118ea4dbbbc5c6f36c15c69fa9e.apk
08a21de6b70f584ceddbe803ae12d79a33d33b50.apk
58eb3fc4d52585f2de4d19e01d0dbd742e321a59.apk
0fc21460d8467fb5a2dee9aee7343069d58a4afb.apk
55c0edc67efef505d728d7adfcffe755021c9964.apk
6639f9197631cfc1220e1f3d450af7e62aebb499.apk
49f327b5bbddee1206a7ab9be6bef541fc2ba874.apk
64bc7f0381ce1793f90f278217f29ff7189d1c35.apk
396888b036203ee436f860b664aec91f8b40afdc.apk
6bbe6d5231bde71a76724d43fb225baeb97c13e3.apk
0936b366cbc39a9a60e254a05671088c84bd847e.apk
77739f780661ac6857a5d7fd3011827a78d6281f.apk
022921cc689e39c50e1e14341e51864c1153c06c.apk
7c1bd55fbcdb1bcebcb45f90850cc14d7e75030b.apk
4473fa7c2e617d7da27563bbc47322689c9d0cd9.apk
5c619e5d620ca4a8c5c865862c4014468e455bf2.apk
179e1c69ceaf2a98fdca1817a3f3f1fa28236b13.apk
54dacf873755f45d77b2e64e56bd070718f5aaa2.apk
61d478bdb81d0623d8ff7c6ce6ae1a0a5dd975bc.apk
3c9e8ba93894a56fcfa7d3ca61c353b20d1ce94e.apk
53253de729ba65f332f90f79a1677cfcbbb71f13.apk
5a74f1796a4177d2c29be91ce15dea217ec7adc5.apk
24d3a18e042c35eea3f95da16c7697ac15fe223b.apk
4ae6b4c3b6ade546dcc71c4ea719aa6420124c53.apk
6a2230335bb9696f94dffffccdb6c02898cd1af2.apk
0a7dacb28d640c8a0acc054824313aecadaac8bb.apk
71938a720f1a17bab0669c3b089aff8f4b3af1f5.apk
0465b4b687651a24b7e230e7b00deca6576fc1d1.apk
2eaa36050292f696d3c9044d4564038a31986add.apk
6778864561499804b6707762238c74d381ebcebb.apk
64cc9eaf66c72baf395068fd82282afc7f8aae5b.apk
3a54aab839656f5ae819c8be848a4b195870ec02.apk
101a5f4db60794e99cefca9d4253ba5c779ad2b4.apk
6cecf0ea838d37a57952b14ca63f6eef01bdbdf7.apk
429fb02bc9ea18e0d485fa70149f33bbe41bf60d.apk
25b55588a296a58191fd2daa6de2aab3951eb99d.apk
4863b54d84dd40c1e371e95a99ef4f306fba501a.apk
3d5f7ce39bfb947a8d96c01bff35c744f837815c.apk
40156a176bb4554853f767bb6647fd0ac1925eac.apk
087aee9d1d99e13279272a256b2702338ea2d58b.apk
57a5d985e6c61d943562f51963ba4babfbfc5605.apk
0e551f4fcc5da86aa2b3b68e14405c2a2c5598f9.apk
037cf475f5d85deec6c3ec8a832af7899a94f794.apk
26bd36c65a9998feb5243acd87ee6994340309d4.apk
2490bec6d26b1c1b9dd9328d40380138f1dbaccf.apk
28094e50c02baea23b3511b8cc07259a07484afc.apk
03cd9a96e17903316ea9204cc26bccfaae089f4e.apk
711ff55e9d5ab5e2614326c0dbb98d6db38e20a6.apk
012339544c49584aace4e99d6c9013d1c79e38dc.apk
43c8c771b3ef116754add2db4201a4320f8b9480.apk
63e642f0d859e096342321c9e03baca7cd1210fa.apk
7567b8b0a4c205663af1cf1cf75cb3ec3c4f558e.apk
71487f6e6fa3a4ab990cb28e07ae1a0ee8182ad6.apk
40a58856afc7e9bc85e1c36bb8cc68870f9c8d7c.apk
0015e260740a3963c724be95f966c6063077979c.apk
656988c0c696696824984728196be6426880609e.apk
025a0a93f4796e05c454bc181b8fd059245de539.apk
00c419169ce1099f508de8b7b97634b49379a531.apk
01cd1ddcc1e183266eeee6ac76d66dd7167a06de.apk
3b76934c273eb7911ab974d9358acc4584f7cfcb.apk
47aeedf4330cf2b4e5fff3a5ae546cc4387ed2f8.apk
20d4d5e122606928f9e57359e0d73440c3b1ef4c.apk
390bdf2b4cc08aed3bd01e9c052df30bc763857c.apk
2b889919deec496060a717770c8660803e2f6bd3.apk
7c0af89dd083b97db3dd70b7a2329c4a21a2c592.apk
467a3aeab0b67612fe7d1e8cb9c873eaaacf8a39.apk
35969ef00dc29bf7d8d3a5b9c436c087985d36b9.apk
42cc9f2d312436c866c5d59b4bd0217e75ac2b21.apk
0e100abf0b509de88a91054c2dff4e57771ad739.apk
58e838ac94883317fff929022a82cab7376ffd06.apk
6f18f1d3809651985a0eafdf47688d370a45f2df.apk
462c8041f02931f7c168d41ca18e46fc95cc4e6a.apk
0eb4b7737df1b8b52213599e405d71c9be8a68ac.apk
72a5e33fcde64437c712ea4f2c5450d46795af68.apk
047043d752265fce625d22113e0b70dfb5e88477.apk
0796d209d28ae48d776e0b990031c0a6d0d2cd70.apk
02122225a6e08c6f33cfcf39563b3df68cc20926.apk
73bb65b2431fefd01e0ebe66582a40e74928e053.apk
537db43883f55b112a4206fb99093bbb31c9c3f2.apk
5175312569352bfa929530c64b12a54a81d9b088.apk
180938e955acc7c546fc758bf88cd93a3c3e2473.apk
73a5f05c7b2dd3e35554c99f0ce15f3ab799691d.apk
526b8f128e6f16e2a1d200b3d97230e17ee75fc1.apk
400a6d9dd4306e7249582939399e705fcecca559.apk
696287b89f9c01178db1adc00bca09d7f730b254.apk
1e2d7c2416328f174d838a75ffe7e885c4d1beac.apk
46454396937f389cf2e438b7047a27350b9f019e.apk
26a80b5a1a6c7c18d21283d198e3df878f425156.apk
31eb52c7682acc6e3c2715278657a78080940b78.apk
39e3b5cedd3144e2def4b54b1c4cbbcf1d40c624.apk
511c8a6c799886aa5c6e731d28958550d9c05aae.apk
340dd8625a6a5eb0750a402d088141b3ee14225e.apk
77c076b134d25a9709f822e73974855a20311639.apk
32cd5dbef434b926ce34e89f0d185fe8d1b5fdfb.apk
2588f3738082f41782f852b603616f641936c54a.apk
532a93bfc6b850b5ef04f06bf1a1334ed8c18a0b.apk
438e0b566eca22e7168711931a958736d9a50118.apk
57f988738b5991c40ec90e8ea9145b4cdd218f32.apk
05b0a342dfadf2ebdb6b2bf15540d4fe4ef4d4ce.apk
24a8f9bd0c46bfdfbcf1d1c80f60298225722a68.apk
53dc08f08005f374a957afa44607ab52f205b684.apk
5e2fb0bef9048f56e461c746b6a644762f0b0b54.apk
693e57580bae775d8e79c259175a8002bf0b8fcb.apk
039f76817208b204f866e80160c2c6c4a3487458.apk
193cd2a8d549b1ff607569ea6c3f5936ce44c47f.apk
0faedbf3a8835ae22e4eaec54020836f011e963d.apk
7a516ac5b21e594073be842b3f73480479df2cdc.apk
630cb29b1385a36b7a811910709c9c0cd856aa98.apk
127df235a9181bb4cdb4dbf1ce19deba90a8df18.apk
0ed06bade12587e2ef29fa1912fd7ed8c4aa1ffe.apk
342d4000200c83daf10f143dc686ef541da3463e.apk
6d5ed5ca8434a571f21fc0770f4f8ba689b20fed.apk
5ac5e5031704057a370ae8dfbb4eb5b8b2692add.apk
584f8a2801a8e7590dc466a6ebc58ea01a2d1758.apk
267043ab471cf7a7d82dda6f16fa4505f719f187.apk
37d499ccdbd4a6aaee403acac60bf13fdb4a4ade.apk
46ec6903a6c621c7b03d36224a79873b135ef2de.apk
11b0f2a63d0deafd4602be297ae37ff921aeada9.apk
6c6deac6ab1a32c063dfe5c14be66a24333d1545.apk
021f3cceb79e195a0d288f39900436bb27db0a15.apk
4b2fc99330921fb64d5465ff1e6a7fc2264870c1.apk
66061b26219ed6591e0da91eb297d976f607db0e.apk
13d7fe4fe6760f6c9d467cc4daf2649ad7d8c7c2.apk
27fdd4676cb374a111acbe673ade023204e11280.apk
005ce595935bf1aae4d53ab4bbd92ce7c81e5b2a.apk
15a3cba1c137a126bb5f29c205c541c253de0dd2.apk
60bacf0dc2068e9ff8769141beb9d2fe6407eaf3.apk
0ae434e79bada1aafff3e33094d1c91d6ba4a4f6.apk
46a4485a6922cfcf7897ad4a3623d973156f7ece.apk
557a34c7a4ac70efcccb123b66a6af7a5ec1f34f.apk
6a74fa3bacf4578799971b240ad6761f779a994d.apk
075734ea39e1063ef8671a5d6469e0f15847daf1.apk
463d8bac6f6d4646c469e8004d3f929a2cb8a269.apk
4de1730332ac35e99337c78ab9aee4fc93f71fc0.apk
07d149da403b5f7e2901f0dbc7561c2f1746061b.apk
0db53aefbd60325df198e9ebb190f45c61ac8923.apk
7a3b1f2bd8dca8070617f97e7a7309f768686ece.apk
5d7a680c041171df0a4a227551e1b2b7c5cc69af.apk
403dda836236787285afe02e7faad83beceb0c99.apk
15e4513fe0edfb14db663eca227f88516cd47c8f.apk
01555033f037f7decc7fbfe968ae8522ea25fb45.apk
397bce64ada488100e423cd12ef0a142ff786bc1.apk
35521071473ee840770f4cc9eb6b6f17203d55e0.apk
2442bca2f23e997f94bc2a26ec05da012fb31785.apk
1fce3240ea70b77e0d11c009788ae7cea5c87f77.apk
5940b02bf39693c90ce59144b226fc6dff53228a.apk
6358acf25c941687697addd40e3a4014a555e9df.apk
35e916d266be4ba8dc1d0e15915d68f63c978222.apk
4ada771c44ccb10670eef0199b23b85c73f9465f.apk
44637a506466199d4707fd75b03194f13174ddb4.apk
426f501c28e6c24d755d71c07561ebf7f1aba5fc.apk
182e4fdf226d96ec495e738a7f166271ba55562f.apk
18ea5584ffb185baf2bb5a87324ae46f7e40ac33.apk
09b143b430e836c513279c0209b7229a4d29a18c.apk
57861a916dcaab2cd325d3f41d66c88d4ccfeff1.apk
24d073595478dab1c563681b43d0d2f23537e3b5.apk
284f8923fe4415ddf6ad1c23055cb9286debfd43.apk
35a0ee37db4ae0e9b0359499e11d96c7b03d9e28.apk
79902b2e49c55ae1ce42bd96bbaa918152bcb6ed.apk
7c6265abfce9d634abcf286893f21ff5efa14f97.apk
3219ead0bb43f7d2fd932c4fc79c91dba559d3e8.apk
6de51c633c02b8fecfbecc5ce8dece09e089cb07.apk
71bedb7b09779f5eaddc534466bc8265b04f622e.apk
2a41e329f8ddd4d2a0e69b1259361f07323bb3bf.apk
58ceeb513bd26c8be00b5cb9a152cb1e8a4e028e.apk
37b42fe6c94386c24c707497ad713c660cc6966c.apk
5a6042845ffa8624e5f0e8a4d94b366186521cb3.apk
13469906ab76205fbf3c04e016d20f31deb74c3b.apk
02d2e109d16d160f77a645f44314fedcdbcd6e18.apk
01cb64d77e8be2ea3a1194f4a966f2303d3c0f3d.apk
22dcb4931512ea83bf0ce352a2e058668c1f72eb.apk
484b5e01066cd2a29967a8e2d227e3a79c1e106d.apk
777e20b423286859c76091281790c66e19d1fe93.apk
35338a58e68de0d835d7cb49db82215ca5ebbbda.apk
1a613334f30005925d95bbfd845caa065a15682b.apk
6b399c361280e83e8a8fcc811686ccf45b9ccf43.apk
1353bd14e91a53fa1ee54cd51c1db6918eb9f851.apk
318ca6d756ed927214658b4b842656673226410a.apk
745d9b1e0b903bee59e350159f6f3a4f3f773a92.apk
788a43ea0f1c2f87d1a1422161983d834cab1db8.apk
6e0ff9b28c52ababf13b13adb01f0bea36eb77bd.apk
744c0c7091630fc5a999277b95dc0b1cf3b68153.apk
6fb2834c5747262bf6c5484d349d379a1764a79c.apk
3b765a7eead17f087911132fca6e2cffdfe7471b.apk
001fa1574a73e9a8481e26df2aa6104eb2406b57.apk
4d7e5692dcc1cadb8ddb391da06cf367eeae0eb2.apk
399420f492787c166f50211b076361973c0d8350.apk
6dfcde1c6040f54691ca88414ad0486afa6b522d.apk
750c7b43cf733c2de2210a8843f402f05bdccc2c.apk
411c2363b4847aa1ce073a3a6c3a07d9bdbe03f3.apk
74f784b7e01c27cd9b6f1d1425a541ca248efeb4.apk
3503130130cd226fc6ff27ea02636bf03c0c431a.apk
4861223a5a82af9180db28d1e865422dadc778f5.apk
493bd7fd1ac8d588f0a999b80bbc4458a293325e.apk
6265fdd2acb56457d06d9b07d6d73eb37af5cdeb.apk
06f97f3c65c28eb422272a213d130103f6bd4693.apk
28f638752960fc6e4e6aa69c8e0aa9e1977b180f.apk
044f87b435c583ca4aa116aef4b54e09bdb42c7b.apk
317396eff7f54067185c4f249041e16f27578010.apk
53a2edf394a0985ac130e904a0ea189f2046f692.apk
73589ea5a0266ae85dd97c3e1150de5d36f1d459.apk
33d0ee8a52bc049eec7dcb02600ea04df9446f06.apk
691c56698c1bbaada0de560dfe582a612702c8ae.apk
72f9fb479e94e263b13e7d40dbbaf1566a3a3d13.apk
039a4ca2b21250b6aa23754f6143411b0edaeec3.apk
43c115cb70bccfbf4e3ff6d9529e1fde6b2f81f4.apk
79535d84bb8fccb7bbae01bf339f2000bd4e7fa4.apk
3eec36cace65a6f3d94308fdfa8c713cca2d4823.apk
59e64dcd3c4c6a04afd04f542b13b25ac68d23ec.apk
0e7bb8c78ab5f6329eb300e320115ed0b5787c44.apk
69bad4181dfe7634f183df40e3fa5510ce3e13eb.apk
003af600bae11d6f15e4f936dd47014e608e6487.apk
45ada41a1d2c8f60186eb41b15ba7a9c858e446d.apk
16706fe77bf2fa73ef2d85543ae1839772d429f9.apk
67c101c7f59a560ea6a46ad49899c869e0541d65.apk
5c70988fc9751f283b2f2b5733f9e7f2a54afa69.apk
5c72dc537300f2fecd26ff56426d1a092fa8138d.apk
4d3bd1ac7ddcda1499f5b40f017cb8e0841ba741.apk
5faed0fd9dd3de3b6292f13fc98f7c1d17ef6e57.apk
420da9b6bca2df0cbbdef4e3b418766341dfc2b6.apk
34e158f33e2c208f77573370bde7c909b6d8eb70.apk
3c5b73d6c31495e614f50706f5f326883dbe3b3b.apk
781a46b6c0041fd4ba926cdbd0b9edea42fa8e32.apk
1034b746a26e236b9a623a5cebfb67dde52a1d8a.apk
193c3e2eee21353758b4a68ad8855822c99c7bbd.apk
0b4fa34a15216de42053dbcc569a2790c923db47.apk
4d39696564dbbad0eae11f8b5d5617dd5d972d7d.apk
5ed635278e3488c93a17fbbb97909b9bb6ed65bf.apk
419d66623a73371a4cf6e96fc7fbf0f230eee724.apk
13aa69204267cc67aefce0fd66f1d88f7f674b83.apk
708ac57b06ad3ac699e6ac7b8b9178244d94e776.apk
29d6871984953e4e647af537f335a393138251e4.apk
52d9de97175038988843352c928c84bc531f626f.apk
0b43ce26e3d71472de357ab4b1e3aa0b94d9f445.apk
063c8927e682fd8b2a5519056d95363bddf6df35.apk
67dd9be4236bb0c1de41b4489d514da977d9203a.apk
25bf619bbea49002e1b127b64d3baa86c85371d8.apk
00983aad12700be0a440296c6173b18a829e9369.apk
2cb88dc6ccd660a97233074d0c18296f5532d757.apk
05499696e53ebe21748ad8f577ee5cd6f8c32b0f.apk
3fee4e482c9e24d85a16ae7bd22bbf980ec16a2d.apk
3bced02d401e03216fdfc1433040a65f9564526a.apk
52e374bcf0e2df500c7f86244b342dc0dc84c8ff.apk
07a3a66dccc51ec5406d09d5009d6e3b9194b36f.apk
2cd9e65ec531feca6272c06e3552d0903be3e100.apk
02547edc895ab7a472e6fb329e246f4f07de7737.apk
1f7c6ea11b2b5ca857fee045207ccd34f9c7b7b6.apk
4c65adb9d9d1a16f91ff9ed9e3a5be7cbf82b19d.apk
40181a7facb6ccde8b685296baa526c4ccfd656d.apk
63c709d3e8265826256aad6f6646ae5ee873268d.apk
210b7eeacc17e713b045ebdf0ba40756c56c821a.apk
04e79201aacd9ca495f605a5ace79b7556816360.apk
5900250af412b7147764706847cf1dbc54cd6e0e.apk
69589f74d0ca9604b775b32e4f96edc9ffc4efd1.apk
71a477ec2cc87dc3a3c874c6fe02bcb00d2f315b.apk
338ae6ebb7ade0b875c0d9f12caefbcc17a0a52f.apk
20595020c2033e4f7221b08e4ed6934f59a0d778.apk
26dd1126da55fd0754a0b96d877ac0f36f248e99.apk
6a9463a70b79531fa263516b18979d15ab419901.apk
6d3b9cdf559443db567113585b40eef459307c94.apk
5d9721692031af2a6a05cb55e54d6687eb408367.apk
30e9becdd9955b23fa2eac01d7335f5c2e1e64ff.apk
69b1e68896de14f63040322a29409847d2b544a3.apk
0a17388b64b6b1e91763a88a0f08194ef4223957.apk
24bb1ebdb9b5dae6605386032bc7ef4dd86606b7.apk
0d7305c88dec708a3358eaa92586fb8f4f35111c.apk
1e79add24a400eb12ecbec28e5c739c13671fc4a.apk
1de9acac9f0e43259c235c3ab08b6da87cda4df9.apk
593dd0ec6d6b9802d5d4626978cead4c83051b4a.apk
3ad389a7665c8c374634dd14ef2e16fbf5c2446c.apk
608e033ab996034bceb90c22bd42a0120e844ff4.apk
30c7121c1757cc7b2c31b5a9f9a9100f758c0c73.apk
32d8d9086f95c0d398614380b265f4d528b30026.apk
1b7d7935fb794dbbb37f4d7922e248bc268aa382.apk
5ee6d380fa086364fed4bbde1ec14c156ac92ed5.apk
2e998614b17adbafeb55b5fb9820f63aec5ce8b4.apk
14a740b8395315a0b3f4a270031ab2ce86d489a3.apk
041a4396669b79e9e3c2d01dbb9b9e72668524b1.apk
35b1825c9b4948e1b924b74afd1d9d5930f8ff4f.apk
02a11b75507fd1b6f612aebbbfc6d203f68f2cc3.apk
2aa283e61aa97d5618f116c9985542c81116f9c4.apk
6a0bfabcc1cce2a5424313b34ca967fbc8f98bea.apk
0c6e6c5a49424ed101b08376fa6114c1603b37b0.apk
1de1d5f21a4afefb7c345187cd391ab83589f85a.apk
14f5c14af60b5930f9dfbeed30f5529ba814c0e6.apk
1230177b243a18aa614d016a935ebe8a85bf204d.apk
0399faa155d4eef2135eef91a2573189e99b94b5.apk
661bf32e3bd763a02587d36aa4b24a703e146c15.apk
5c52f10a83f344c1d68c3c79a4b306f667e62f0a.apk
6db6ce3ea3573088bb3f64d6a64a73bab565b38e.apk
25cb1303ef19cdefbceac59f2d43903dc6d3d8f8.apk
73ddc408b518826064878dfc0064c4cd4fe512c0.apk
7c837a2b674f23aac7698bb6bd3b909617a2c1af.apk
0aa251d6ad8fb378d48d010d3ef1defe56967e35.apk
243419ce2339943e5e4c7fe445454983020c03b2.apk
2ac72e9b0c4cbf4e3aaaf0f3614e53dbce703bfa.apk
10a022a2901a47bf1e1e2ca2bad591018e08eb98.apk
20a2ed4fee860b65cc2c2c65a83f23d797bc3b8e.apk
47aaece3cc2f6648edcde48be3265b916e0a552b.apk
4e37279fb5c494c6c0e26e54046d43b7d57d2c29.apk
4b5cdc89b14f2eafa191e448c3e928c4c45ce8ec.apk
26dc23d5c2098b1343bc7795f670d1c61909c95b.apk
377091a1727a58359b5d834e62fbe8ffc30d4baf.apk
34f0173db9b416022c56d69a3361595e181055fc.apk
0439a1f9e665641637ade3dc6db962e2b67d0a44.apk
0d30027d1098d767bdd54faee43af4edb79819ce.apk
5e2c1f35ea3196a7d81b42d932729c4f253fbc8a.apk
65567a9b079f513916eb9da07131c07fa103985d.apk
284b7f3493fe63c7672c9df8d56457be665aff64.apk
67bfb5edf9dbb7cbc82964d68e97106723737f60.apk
577a8ca890650244033f4c431c12a433c4a8ada4.apk
76d76c4e1cd94dfd1944f589c865f4765ed8c180.apk
166ab84cf70dce0ba98e417b5d7eab550a8ccf65.apk
1c0a6b1c5d24cbba9b11020231fffc0840dd7e10.apk
5f9e7ca78bda7f4aff3640f84d8162e2144b87df.apk
452d6acc582168089f8462bfc169b5c3e555ea2e.apk
0ef4a6bfa054343869e254e206d4e49b8fc5881b.apk
53c335b96e05ed1a6c49647585f33e0ebe495d58.apk
173f041523a8c909a7b84f12a7835615f61d54ea.apk
4ef262b65298c8ce0ed694481a4c15c87be08e4e.apk
77df000d8b811d19cc26887fc63ba797f4865e94.apk
657d6567d102d4d2185a4d9a9874d460bfb052c6.apk
26445b9ca60a033fd6939016c9176537ec37bf12.apk
3a9b4e71df7b2ae05acd29b6e1ab7e68ca697187.apk
6cddc0292bf8db5dd5d933d4e443701816d186ae.apk
707f94a0d9ecadc19b254cd93e69f792a8f97b18.apk
718b31f6ebd32ddf6f7f7378b0a92e2724e49f81.apk
08ae867d595465b9d94e20dbda0babeef38b3489.apk
2c1ea998acb4e71242ca757b03b7dd3de1c4cbc5.apk
4668aaf1fb373f5ccefee61528b38228ac7ec2b0.apk
63deae9995cca9ad5010e686b7fdf80fd888c9f0.apk
308bd78d224975c916fc766c7f23ab7fde838d8a.apk
4fdcfaf6fa2d5e49ca81adad8bfe595fc30bd86e.apk
00c154b42fd483196d303618582420b89cedbf46.apk
1dadd4ac2b36e366a2dc0e1869246520542a1257.apk
2867b64163407a4c8bad0a2775923bb4331b8f6a.apk
2dad20f4b3e43d1e9abe2ee1a4eefcfdcfe7a1ba.apk
3a1e6fd2d3b454802faf8510b12187010c31c4d9.apk
17cb8f0fa3e1e63303e8230b8e62423fd3abee13.apk
2b54ee6409eb48952fec2e448c53dcfe952fb563.apk
384445dc9bb8068133c96a60ae7e440329ebee76.apk
2315239af9c0041d876ace7b600f278ffe4f3b64.apk
26e253420b194e4ab55ad3550a31155091ad00b2.apk
7237c992c69e4bd2ccb6e8a79bd87d90eb3fb37b.apk
6020a609ec937acbe202f3f7f0f72ad2558602b5.apk
2d486501dcf635a5ca58bb82d3dd3539329a276d.apk
1f56be54a06d20b4f394f4023d9fd6a4c3c443d1.apk
255a1b74428b5615d65f39775ec7234e27bd9e74.apk
7560eaf83f211bb68472b437fc447ceab9679947.apk
2e058566681bd767edd930fce75114d4612db994.apk
0657a70a655dc439b4222c8161b1f5a9667e84e3.apk
09c56b746583cc5620ed7d405fea85105d387cbd.apk
60e56d2c044832d336fbbb75b22fb37cb69e05b6.apk
1d53d08fcec4ac4e205bcf8dbe9af6a53eca6ca8.apk
730fed46dc7f13691906f46111ee5e05aa1b854e.apk
212cd727fbc46186b0f9ee6aa507ac9f89b0c089.apk
08033b1e70ba72dfc4784b0a4e1c35aed5e62ee4.apk
79c83a57af24b61670f4a8f4da4adf342e2ccdde.apk
6c12c6a47b14b5ef5e8ba9a35caab8d3a49bd517.apk
48ee219b43bb37c63e46e7f419c869dc7c666f74.apk
3ad00ec15c2843460a5188332c8f33e4e1b9b0ec.apk
55d2ac3807448a671924a0ba007311203e280dfd.apk
03168dbe4239cb242c5217d4052995278077623e.apk
00d6e661f90663eeffc10f64441b17079ea6f819.apk
26700b0638695958e8fd3887a54baba5c9c75214.apk
0dfe1373eb42bf32a0780d34982d6f1898aafb8f.apk
0d90ccfae4bb1ad17dd55768f380406ef3b0eced.apk
4ff28a2946bc1fa9e826e85f993b6ef5d86df63c.apk
74019e8bf30ef7cce7dbf34a2a3df5f8915a0b48.apk
205f802ae72827841f5a51de9b6e6203f692fb14.apk
27970cd6a9299ed0c34fcb265b372edb9ba772ac.apk
5d4849121562ef989506a61bccf2eb0aa40cb496.apk
0aecc2fb8fcb5d96713093fe87a22addaa0c7d46.apk
096427cfca06b10a3dd0d47284fc64fdd9e884eb.apk
557808c79a19305176f4385c7e0570ff5cdee0a6.apk
115b757c9df233ceca440897be072b08e33653c3.apk
348c5ca7ae05b6fc960f7ea646a65fc02b6ee7e3.apk
22445b06ed3aa807a0db23e6bc7f41d16a1f9465.apk
7bcc36904ba3e3cddf9a9988757cd06a87739ea2.apk
542f2e0e6c98abd2f78e915e010030cb8f7d45a2.apk
2c8d75b4de0a7415eeb24ae0b6cbe04392d60e3b.apk
3a5cd9801c5e4792a204f9c40bcec092fd888c02.apk
1317d996682f4ae4cce60d90c43fe3e674f60c22.apk
093b259d2f93c76cfdc43774e1fd3f9bb4d3d44d.apk
525021355c2042b23860e00c2c890200417e2207.apk
31c9a6cb37cd4acec71128a065dcb0d67448389c.apk
002f537027830303e2205dd0a6106cb1b79fa704.apk
31c8bd21fff04f233e0f00e9c8007bb37c567544.apk
6d0c0a4da591b890b112776911bfa8c022c387be.apk
0064b4c07ba12fa2fe9cdf462175010d604bc27a.apk
046c6a2ee313224315b92f277ca3e852fa69089e.apk
739ae32d675b3f030a94da081978fa8f34971111.apk
1ce27fa92a313da39f1e31e97d3ac05a8d6ffe78.apk
6abce94205ee4fb45584bf767be98cff478233ce.apk
4510995da9150d89c71a6a6e1e2a647def1f4b4b.apk
081cb21a6bf6005a24186353cbae9574c055ce26.apk
285407cd685b3309e3f66c675378e6ab8151e838.apk
4355dd9e97153ecd2424ab044ebd52e4e080422c.apk
4b105d5b8b87818e4e49a0f6454fa9ff48e4fdeb.apk
58c9d94a6dc29927fa5794eb7d6cda8b30d176ad.apk
640c4761f280f5c1fca5e1ec13adf5fa88f09d2f.apk
78a0895df436b6e2554a17edaa892a70998a5dfa.apk
0d33dc4fe85e88cb70e9e1870497b4fc26c272c1.apk
605e048e7731c750df6965fba784a92c0f598b9a.apk
22cb9404fa1d2e8d86ffd8bab1eb78d28ee2a9a4.apk
4096c6fef844652fdb8e68ba9455d1b86e4509ce.apk
303e151c8ea1e1436ec07c5db13968393546587f.apk
1afff2004b829c1ff4f5e1b9dc73fb7e0547ef78.apk
02c235ecf10fdba3afff584f6591a2959c18ec1c.apk
400acf4279ada32b148a7371b14672e8bbdac39e.apk
68df1366271b3709a6afb24babb38c31277a05e3.apk
45fd0de43d16ebd4e8a25262fb2125a8d50a4963.apk
300c2b19d6882dd6d9af9e59dad1079c49f3c8a1.apk
2c47ec0a2eb6e88e910f1c16889f8cdedce09507.apk
71d2f241f2cb8f4208dd3574df3c3ce0dacdd1c0.apk
509e23d136c9a33ba53adf68f4ba1a4a0d105353.apk
72adcf43e5f945ca9f72064b81dc0062007f0fbf.apk
5ca348715893e5653f9b1ff133d0ea8024688bb7.apk
002a775c92338612b6e3fbf00ab157a353e48514.apk
25d641a8c6cc45fc299276a7f9181fafd19be2d2.apk
2c1e7ac97f69753eda5ab088950b64ac12de0b44.apk
4d43d7771e480de34dbf748867152406b91a0de8.apk
76d39105c126d681af4c4da762acf368de2f934b.apk
787684a5c11048420f23021f27ea1eb9d59e6160.apk
24c9cf3d947fbb667df0e7536a2af36872011cd3.apk
3854590e9c6bfb40005f18a101382c4a3ed03c02.apk
3af9b2d73ec08af9226d0f24ee6a2d41d9023bb1.apk
5d6e726eae1ec333363a0308f4fee075245690c9.apk
573fa43ecbebf1eabf94f747ad4fd91394183afa.apk
3c0599b86adf69d7fc9a6cd27fee6d2ebdea2115.apk
1f522d9ab07fc716e7f201fad12ccea396987a83.apk
415ee7fdc39c4a4102bf3513338c37a60773fb4c.apk
53a4ca3552bfa0857dada5776d7bfcf2fb0296ba.apk
44bea1efadf2f537169db3aee6e665dd9be22f4e.apk
22a286c16748889399735aef429ea923d0398c51.apk
202252e3767456e95b27d0476ae29bcc11253c1e.apk
15799032055df9f93440b61547b37e01a7234a0c.apk
4cc4b17adfc9e0098e467c3268c25b06016b44a4.apk
6bf0ae55fce70c8f668daa66ce343212772eddf7.apk
